Place,Sex,Name,CyrillicName,BodyweightKg,Squat1Kg,Squat2Kg,Squat3Kg,Best3SquatKg,Squat4Kg,Bench1Kg,Bench2Kg,Bench3Kg,Best3BenchKg,Bench4Kg,Deadlift1Kg,Deadlift2Kg,Deadlift3Kg,Best3DeadliftKg,Deadlift4Kg,TotalKg,WeightClassKg,Event,Equipment,Tested,Division,Age,BirthDate
1,F,Ekaterina Nazaruk,Екатерина Назарук,58,70,-77.5,-80,70,,35,40,-45,40,,75,82.5,90,90,,200,60,SBD,Wraps,Yes,Amateur Teen 14-16,15,2002-07-12
1,F,Irina Yushina,Ирина Юшина,80.1,110,120,-125,120,,55,-60,-60,55,,120,130,-135,130,,305,82.5,SBD,Wraps,Yes,Amateur Masters 40-49,43,1974-07-19
1,M,Aleksey Yushin,Алексей Юшин,73.5,170,180,185,185,,145,150,155,155,,220,230,-240,230,,570,75,SBD,Wraps,Yes,Amateur Open,35,1982-10-09
1,M,Rodion Tarasov,Родион Тарасов,76.5,160,180,-190,180,,90,100,110,110,,200,210,220,220,,510,82.5,SBD,Wraps,Yes,Amateur Sub-Juniors 17-19,19,1999-03-12
2,M,Egor Molostovkin,Егор Молостовкин,77.6,-120,130,140,140,,90,100,-110,100,,160,172.5,182.5,182.5,,422.5,82.5,SBD,Wraps,Yes,Amateur Sub-Juniors 17-19,19,1998-09-29
1,M,Mikhail Mozhginskiy,Михаил Можгинский,81,170,180,195,195,,140,150,160,160,,195,210,-215,210,,565,82.5,SBD,Wraps,Yes,Amateur Open,36,1981-10-15
1,M,Vladislav Khodosevich,Владислав Ходосевич,85.8,170,180,190,190,,125,-135,135,135,,170,187.5,200,200,,525,90,SBD,Wraps,Yes,Amateur Sub-Juniors 17-19,18,1999-08-28
1,M,Kirill Kuzin,Кирилл Кузин,84.6,215,225,235,235,,140,145,-150,145,,235,240,252.5,252.5,,632.5,90,SBD,Wraps,Yes,Amateur Juniors 20-23,22,1996-02-27
1,M,Sokrat Skvortsov,Сократ Скворцов,88,-170,-175,177.5,177.5,,-130,135,-140,135,,210,-215,-215,210,,522.5,90,SBD,Wraps,Yes,Amateur Open,38,1980-06-07
DQ,M,Artem Marchenko,Артем Марченко,87.8,120,-125,130,130,,-100,-100,-100,,,,,,,,,90,SBD,Wraps,Yes,Amateur Open,29,1988-09-21
1,M,Aleksey Mizin,Алексей Мизин,97.9,-150,150,170,170,,110,-115,-115,110,,170,185,-200,185,,465,100,SBD,Wraps,Yes,Amateur Open,38,1980-04-22
2,M,Sergey Tretyakov,Сергей Третьяков,93.7,122.5,135,147.5,147.5,,117.5,125,132.5,132.5,,145,170,-185,170,,450,100,SBD,Wraps,Yes,Amateur Open,39,1978-08-17
1,M,Evgeniy Grebnev,Евгений Гребнев,105.8,130,135,140,140,,130,140,-147.5,140,,165,175,182.5,182.5,,462.5,110,SBD,Wraps,Yes,Amateur Open,38,1980-05-07
1,M,Georgiy Kovalevskiy,Георгий Ковалевский,78.8,190,200,210,210,,130,-140,140,140,,220,230,240,240,,590,82.5,SBD,Wraps,No,Pro Juniors 20-23,20,1997-10-28
1,F,Irina Sazonkina,Ирина Сазонкина,50.2,95,105,-110,105,,37.5,40,42.5,42.5,,80,87.5,90,90,,237.5,52,SBD,Wraps,Yes,Amateur Open,27,1990-10-16
2,F,Olga Ostreyko,Ольга Острейко,51,70,-75,-75,70,,-40,40,-45,40,,70,75,80,80,,190,52,SBD,Wraps,Yes,Amateur Open,23,1994-09-13
1,M,Egor Rusov,Егор Русов,72.1,170,-180,-180,170,,110,115,117.5,117.5,,160,-170,170,170,,457.5,75,SBD,Wraps,Yes,Amateur Sub-Juniors 17-19,19,1998-09-16
1,M,Kirill Tyulkin,Кирилл Тюлькин,86.6,165,175,180,180,,132.5,-137.5,137.5,137.5,,180,190,200,200,,517.5,90,SBD,Wraps,No,Pro Open,35,1982-10-20
2,M,Evgeniy Nagaev,Евгений Нагаев,84.9,-140,140,150,150,,-110,110,117.5,117.5,,140,150,160,160,,427.5,90,SBD,Wraps,No,Pro Open,35,1983-04-22
DQ,M,Mikhail Okhrimenko,Михаил Охрименко,86.9,150,160,170,170,,-135,-135,-135,,,,,,,,,90,SBD,Wraps,No,Pro Open,31,1986-09-27
DQ,M,Ivan Lukashov,Иван Лукашов,97,-250,-250,-250,,,,,,,,,,,,,,100,SBD,Wraps,No,Pro Open,36,1982-02-20
1,M,Andrey Muratov,Андрей Муратов,107.2,260,280,-285,280,,-170,175,-185,175,,260,280,-462.5,280,,735,110,SBD,Wraps,No,Pro Open,30,1988-03-27
2,M,Nikolay Polyakov,Николай Поляков,101.3,170,185,200,200,,170,175,180,180,,200,220,240,240,,620,110,SBD,Wraps,No,Pro Open,34,1984-05-21
1,M,Vladimir Elistratov,Владимир Елистратов,120.2,300,-320,320,320,,-150,152.5,162.5,162.5,,285,300,-310,300,,782.5,125,SBD,Wraps,No,Pro Open,24,1993-09-08
1,F,Valeriya Ushkova,Валерия Ушкова,54.9,,,,,,47.5,-50,-50,47.5,,107.5,112.5,115,115,,162.5,56,BD,Raw,Yes,Amateur Open,25,1992-10-07
1,F,Kristina Shubtsova,Кристина Шубцова,57.1,,,,,,27.5,32.5,-35,32.5,,65,72.5,-77.5,72.5,,105,60,BD,Raw,Yes,Amateur Teen 14-16,16,2001-09-02
1,F,Ulyana Leonova,Ульяна Леонова,65.2,,,,,,27.5,32.5,-35,32.5,,62.5,72.5,77.5,77.5,,110,67.5,BD,Raw,Yes,Amateur Teen 14-16,15,2003-06-07
1,M,Valeriy Popov,Валерий Попов,63.2,,,,,,65,72.5,-80,72.5,,82.5,115,130,130,,202.5,67.5,BD,Raw,Yes,Amateur Sub-Juniors 17-19,17,2001-02-23
1,M,Roman Khasanov,Роман Хасанов,79,,,,,,80,85,90,90,,100,130,140,140,,230,82.5,BD,Raw,Yes,Amateur Sub-Juniors 17-19,17,2001-01-02
1,M,Stanislav Monakhov,Станислав Монахов,91.1,,,,,,120,-125,-125,120,,150,160,-170,160,,280,100,BD,Raw,No,Pro Open,29,1989-03-29
1,M,Yuliya Lapteva,Юлия Лаптева,53.7,,,,,,37.5,-42.5,-42.5,37.5,,,,,,,37.5,56,B,Raw,Yes,Amateur Open,30,1987-11-23
1,M,Dmitriy Laukhin,Дмитрий Лаухин,32.1,,,,,,20,22.5,25,25,,,,,,,25,52,B,Raw,Yes,Youth,11,2007-03-22
1,M,Maksim Kiritsa,Максим Кирица,59.5,,,,,,55,60,-65,60,,,,,,,60,60,B,Raw,Yes,Amateur Teen 14-16,16,2001-08-03
1,M,Sergey Pronichkin,Сергей Проничкин,58.3,,,,,,122.5,127.5,-130,127.5,,,,,,,127.5,60,B,Raw,Yes,Amateur Open,28,1989-08-15
1,M,Ivan Vorobev,Иван Воробьев,66.5,,,,,,70,75,77.5,77.5,,,,,,,77.5,67.5,B,Raw,Yes,Amateur Teen 14-16,14,2003-11-09
1,M,Daniil Artamonov,Даниил Артамонов,64.2,,,,,,100,-107.5,107.5,107.5,,,,,,,107.5,67.5,B,Raw,Yes,Amateur Sub-Juniors 17-19,17,2000-07-25
1,M,Sergey Kosharnov,Сергей Кошарнов,65.8,,,,,,110,120,-125,120,,,,,,,120,67.5,B,Raw,Yes,Amateur Open,24,1994-04-13
1,M,Ilya Ovchinnikov,Илья Овчинников,72.8,,,,,,105,110,-117.5,110,,,,,,,110,75,B,Raw,Yes,Amateur Teen 14-16,16,2001-07-18
1,M,Maksim Pavlov,Максим Павлов,72.5,,,,,,125,-135,-135,125,,,,,,,125,75,B,Raw,Yes,Amateur Open,34,1984-05-13
2,M,Georgiy Davidyan,Георгий Давидян,74.4,,,,,,117.5,125,-135,125,,,,,,,125,75,B,Raw,Yes,Amateur Open,32,1986-03-15
3,M,Andrey Telitsyn,Андрей Телицын,70.5,,,,,,117.5,120,-125,120,,,,,,,120,75,B,Raw,Yes,Amateur Open,29,1988-11-12
4,M,Aleksey Prostomolotov,Алексей Простомолотов,72.4,,,,,,120,-125,-125,120,,,,,,,120,75,B,Raw,Yes,Amateur Open,26,1992-04-13
5,M,Timur Askarov,Тимур Аскаров,73.3,,,,,,120,-130,-130,120,,,,,,,120,75,B,Raw,Yes,Amateur Open,34,1983-07-21
1,M,Roman Kuvshinov,Роман Кувшинов,80.8,,,,,,135,-145,-145,135,,,,,,,135,82.5,B,Raw,Yes,Amateur Open,28,1990-01-25
2,M,Aleksandr Lysikov,Александр Лысиков,78.8,,,,,,115,-127.5,-127.5,115,,,,,,,115,82.5,B,Raw,Yes,Amateur Open,24,1993-10-15
3,M,Dmitriy Laptev,Дмитрий Лаптев,79.6,,,,,,102.5,110,-112.5,110,,,,,,,110,82.5,B,Raw,Yes,Amateur Open,30,1987-06-22
1,M,Maksim Korobov,Максим Коробов,86.1,,,,,,97.5,102.5,-107.5,102.5,,,,,,,102.5,90,B,Raw,Yes,Amateur Sub-Juniors 17-19,17,2001-03-31
1,M,Evgeniy Zharov,Евгений Жаров,87,,,,,,145,152.5,,152.5,,,,,,,152.5,90,B,Raw,Yes,Amateur Open,31,1986-11-07
2,M,Valeriy Smirnov,Валерий Смирнов,87.9,,,,,,132.5,142.5,-152.5,142.5,,,,,,,142.5,90,B,Raw,Yes,Amateur Open,37,1980-08-09
3,M,Aleksandr Naraulov,Александр Нараулов,86.4,,,,,,135,140,-145,140,,,,,,,140,90,B,Raw,Yes,Amateur Open,39,1978-09-09
4,M,Pavel Frolov,Павел Фролов,86.2,,,,,,125,132.5,135,135,,,,,,,135,90,B,Raw,Yes,Amateur Open,27,1990-07-16
5,M,Pavel Kryukov,Павел Крюков,82.7,,,,,,-122.5,-125,125,125,,,,,,,125,90,B,Raw,Yes,Amateur Open,26,1991-12-16
6,M,Ilya Kolesnikov,Илья Колесников,86.8,,,,,,115,-120,-120,115,,,,,,,115,90,B,Raw,Yes,Amateur Open,28,1990-02-23
DQ,M,Sergey Zhukov,Сергей Жуков,83.3,,,,,,-132.5,-132.5,-132.5,,,,,,,,,90,B,Raw,Yes,Amateur Open,27,1991-02-24
DQ,M,Sergey Petrov,Сергей Петров,87.2,,,,,,-125,-125,-125,,,,,,,,,90,B,Raw,Yes,Amateur Open,27,1990-06-16
1,M,Vladimir Lashin,Владимир Лашин,89.6,,,,,,-127.5,127.5,132.5,132.5,,,,,,,132.5,90,B,Raw,Yes,Amateur Masters 50-59,58,1960-03-28
1,M,Dmitriy Vasilev,Дмитрий Васильев,91.1,,,,,,167.5,175,-180,175,,,,,,,175,100,B,Raw,Yes,Amateur Open,34,1984-02-21
2,M,Pavel Petrov,Павел Петров,97.2,,,,,,-165,170,175,175,,,,,,,175,100,B,Raw,Yes,Amateur Open,34,1983-08-03
3,M,Ruslan Andriyashev,Руслан Андрияшев,96.3,,,,,,157.5,-162.5,-162.5,157.5,,,,,,,157.5,100,B,Raw,Yes,Amateur Open,25,1992-06-24
4,M,Denis Shevyakov,Денис Шевяков,97.5,,,,,,145,-150,-150,145,,,,,,,145,100,B,Raw,Yes,Amateur Open,35,1983-04-15
5,M,Yuriy Budaragin,Юрий Бударагин,98.2,,,,,,125,140,145,145,,,,,,,145,100,B,Raw,Yes,Amateur Open,32,1985-12-10
6,M,Vasiliy Kotov,Василий Котов,93.1,,,,,,135,140,-145,140,,,,,,,140,100,B,Raw,Yes,Amateur Open,35,1982-09-08
7,M,Mikhail Potapov,Михаил Потапов,97.5,,,,,,135,-140,-140,135,,,,,,,135,100,B,Raw,Yes,Amateur Open,26,1991-09-29
1,M,Daniil Kildyushkin,Даниил Кильдюшкин,107.2,,,,,,160,-167.5,-167.5,160,,,,,,,160,110,B,Raw,Yes,Amateur Juniors 20-23,21,1997-04-01
1,M,Nikita Malyutin,Никита Малютин,102.5,,,,,,165,170,172.5,172.5,,,,,,,172.5,110,B,Raw,Yes,Amateur Open,24,1994-03-26
2,M,Dmitriy Greshnikov,Дмитрий Грешников,107,,,,,,160,167.5,-172.5,167.5,,,,,,,167.5,110,B,Raw,Yes,Amateur Open,28,1990-06-03
3,M,Nikolay Zakhryamin,Николай Захрямин,102.6,,,,,,150,-160,-160,150,,,,,,,150,110,B,Raw,Yes,Amateur Open,28,1990-01-01
1,F,Alyona Semerozumenko,Алёна Семерозуменко,52.7,,,,,,-55,55,-60,55,,,,,,,55,56,B,Raw,No,Pro Sub-Juniors 17-19,17,2000-09-11
1,F,Tatyana Lyalyakicheva,Татьяна Лялякичева,58.5,,,,,,60,65,-67.5,65,,,,,,,65,60,B,Raw,No,Pro Open,40,1978-03-21
2,F,Yuliya Polyakova,Юлия Полякова,56.8,,,,,,-55,55,60,60,,,,,,,60,60,B,Raw,No,Pro Open,27,1990-12-16
1,M,Aleksandr Verbitskiy,Александр Вербицкий,62,,,,,,-95,95,102.5,102.5,,,,,,,102.5,67.5,B,Raw,No,Pro Juniors 20-23,22,1996-02-28
1,M,Nikita Konstantinov,Никита Константинов,71.6,,,,,,90,95,-100,95,,,,,,,95,75,B,Raw,No,Pro Juniors 20-23,21,1996-12-14
1,M,Dmitriy Skvortsov,Дмитрий Скворцов,81,,,,,,135,142.5,-147.5,142.5,,,,,,,142.5,82.5,B,Raw,No,Pro Open,29,1988-07-05
1,M,Igor Grachev,Игорь Грачев,85.2,,,,,,167.5,175,180,180,,,,,,,180,90,B,Raw,No,Pro Open,39,1978-07-14
2,M,Sergey Galanin,Сергей Галанин,84.3,,,,,,70,90,100,100,,,,,,,100,90,B,Raw,No,Pro Open,33,1984-09-04
1,M,Oleg Shurupin,Олег Шурупин,97.1,,,,,,155,160,-167.5,160,,,,,,,160,100,B,Raw,No,Pro Open,24,1994-03-29
2,M,Aleksandr Chashka,Александр Чашка,100,,,,,,-150,160,-165,160,,,,,,,160,100,B,Raw,No,Pro Open,29,1989-04-01
1,M,Vladimir Efremenkov,Владимир Ефременков,101.7,,,,,,140,-150,150,150,,,,,,,150,110,B,Raw,No,Pro Juniors 20-23,21,1996-12-26
1,M,Vasiliy Kolybelin,Василий Колыбелин,107.6,,,,,,205,210,-212.5,210,,,,,,,210,110,B,Raw,No,Pro Open,41,1976-12-27
2,M,Denis Puzyrev,Денис Пузырев,100.4,,,,,,185,-192.5,-192.5,185,,,,,,,185,110,B,Raw,No,Pro Open,44,1974-03-31
3,M,Nikolay Polyakov,Николай Поляков,101.3,,,,,,170,175,180,180,,,,,,,180,110,B,Raw,No,Pro Open,34,1984-05-21
DQ,M,Andrey Dezhin,Андрей Дежин,92.5,,,,,,-270,-277.5,-277.5,,,,,,,,,100,B,Multi-ply,No,Pro Open,25,1992-07-30
1,M,Andrey Grudkin,Андрей Грудкин,117,,,,,,-240,260,-280,260,,,,,,,260,125,B,Multi-ply,No,Pro Open,34,1984-03-30
1,M,Aleksandr Tolmachev,Александр Толмачев,90,,,,,,,,,,,210,235,-240,235,,235,90,D,Raw,No,Pro Open,34,1984-01-06
1,M,Ivan Lukashov,Иван Лукашов,97,,,,,,,,,,,260,272.5,-280,272.5,,272.5,100,D,Raw,No,Pro Open,36,1982-02-20
2,M,Dmitriy Kastov,Дмитрий Кастов,96.8,,,,,,,,,,,-185,-195,195,195,,195,100,D,Raw,No,Pro Open,26,1992-01-29
1,M,Vladimir Efremenkov,Владимир Ефременков,101.7,,,,,,,,,,,240,-260,260,260,-300,260,110,D,Raw,No,Pro Juniors 20-23,21,1996-12-26
1,M,Daniil Brus,Даниил Брус,64.7,,,,,,,,,,,-170,180,-195,180,,180,67.5,D,Raw,Yes,Amateur Juniors 20-23,20,1997-11-29
1,M,Roman Kuvshinov,Роман Кувшинов,80.8,,,,,,,,,,,185,200,215,215,,215,82.5,D,Raw,Yes,Amateur Open,28,1990-01-25
1,M,Aleksey Evstratov,Алексей Евстратов,88.6,,,,,,,,,,,180,192.5,202.5,202.5,,202.5,90,D,Raw,Yes,Amateur Open,26,1991-06-28
1,M,Vladimir Pronin,Владимир Пронин,98.1,,,,,,,,,,,220,240,245,245,,245,100,D,Raw,Yes,Amateur Juniors 20-23,21,1996-08-28
1,F,Valeriya Zdorova,Валерия Здорова,53.7,,,,,,,,,,,-110,110,,110,,110,56,D,Raw,No,Pro Open,24,1993-07-04
1,F,Irina Androshchuk,Ирина Андрощук,63.1,,,,,,,,,,,90,100,-107.5,100,,100,67.5,D,Raw,No,Pro Masters 50-59,53,1965-01-04
1,M,Nikolay Polyakov,Николай Поляков,101.3,,,,,,,,,,,200,220,240,240,,240,110,D,Raw,No,Pro Open,34,1984-05-21
