Division,WeightClassKg,Place,Name,Team,BodyweightKg,Best3SquatKg,Best3BenchKg,Best3DeadliftKg,TotalKg,Equipment,Event,Sex
Boys,51.71,1,Cassius Fitzpatrick,Denison,51.07,147.42,90.72,151.95,390.09,Single-ply,SBD,M
Boys,51.71,2,Zachary Kuntz,Rockwall,49.26,92.99,61.23,122.47,276.69,Single-ply,SBD,M
Boys,55.79,3,Jesse Couch,Denison,51.89,95.25,52.16,104.33,251.74,Single-ply,SBD,M
Boys,51.71,4,Rey Rodriguez,North Forney,50.89,102.06,38.56,99.79,240.4,Single-ply,SBD,M
Boys,55.79,5,Gio Gutierrez,North Mesquite,51.94,99.79,36.29,97.52,233.6,Single-ply,SBD,M
Boys,51.71,6,Jeremy Hibler,Justin Northwest,40.82,68.04,36.29,90.72,195.04,Single-ply,SBD,M
Boys,51.71,DQ,Raymond Sanchez,Lone Oak,45.36,,,,,Single-ply,SBD,M
Boys,55.79,1,Daniel Hernandez,Royse City,55.11,151.95,79.38,172.37,403.7,Single-ply,SBD,M
Boys,55.79,2,Brandon Jones,Cumby,55.79,138.35,102.06,154.22,394.63,Single-ply,SBD,M
Boys,55.79,3,Ralph Bustos,Kaufman,55.52,142.88,86.18,147.42,376.48,Single-ply,SBD,M
Boys,55.79,4,Hunter McDaniel,Caddo Mills,55.52,133.81,86.18,151.95,371.95,Single-ply,SBD,M
Boys,59.87,5,Jace Pallan,Celeste,55.88,129.27,77.11,151.95,358.34,Single-ply,SBD,M
Boys,55.79,6,Joseph Musgrove,Justin Northwest,55.43,108.86,74.84,145.15,328.85,Single-ply,SBD,M
Boys,55.79,7,Crinstin Aleman,North Mesquite,55.16,106.59,83.91,113.4,303.91,Single-ply,SBD,M
Boys,55.79,8,Billy McMahon,Farmersville,55.79,113.4,65.77,117.93,297.1,Single-ply,SBD,M
Boys,55.79,9,Kevin Okolo,Garland Rowlett,55.52,92.99,61.23,129.27,283.5,Single-ply,SBD,M
Boys,55.79,10,Jack Jones,Cumby,53.8,99.79,70.31,106.59,276.69,Single-ply,SBD,M
Boys,55.79,DQ,Kelly Coffman,Caddo Mills,53.98,,,,,Single-ply,SBD,M
Boys,55.79,DQ,Wyatt Kelsay,Caddo Mills,55.79,111.13,74.84,,,Single-ply,SBD,M
Boys,59.87,1,Ellic Hayden,Justin Northwest,57.88,136.08,99.79,142.88,378.75,Single-ply,SBD,M
Boys,67.13,2,Reece Walker,Cumby,60.06,140.61,74.84,158.76,374.21,Single-ply,SBD,M
Boys,59.87,3,Tyler Davis,Kaufman,58.42,140.61,74.84,136.08,351.53,Single-ply,SBD,M
Boys,59.87,4,Kd Edwards,Royse City,59.42,115.67,74.84,142.88,333.39,Single-ply,SBD,M
Boys,59.87,5,Jacob Wantroba,Denison,58.51,117.93,77.11,136.08,331.12,Single-ply,SBD,M
Boys,67.13,6,Weston McCluskey,Quinlan Ford,60.06,120.2,77.11,131.54,328.85,Single-ply,SBD,M
Boys,59.87,7,Kaleb Moore,Caddo Mills,59.06,106.59,61.23,120.2,288.03,Single-ply,SBD,M
Boys,59.87,8,Austin Vandiver,Royse City,59.42,97.52,61.23,115.67,274.42,Single-ply,SBD,M
Boys,67.13,1,Alex Ramsey,Royse City,67.13,170.1,104.33,181.44,455.86,Single-ply,SBD,M
Boys,67.13,2,Kevonte Collier,South Garland,67.13,158.76,108.86,181.44,449.06,Single-ply,SBD,M
Boys,67.13,3,Chris Stephens,Sherman,66.86,183.7,81.65,163.29,428.64,Single-ply,SBD,M
Boys,67.13,4,Bryan Lacey,South Garland,61.96,158.76,106.59,156.49,421.84,Single-ply,SBD,M
Boys,67.13,5,Hakeem Regis,North Forney,63.41,145.15,97.52,176.9,419.57,Single-ply,SBD,M
Boys,67.13,6,Frank Cortez,Kaufman,66.86,156.49,81.65,181.44,419.57,Single-ply,SBD,M
Boys,67.13,7,Jeffery McLeod,Garland Rowlett,66.68,147.42,88.45,181.44,417.3,Single-ply,SBD,M
Boys,67.13,8,Matt Castillo,North Mesquite,63.68,149.69,83.91,181.44,415.04,Single-ply,SBD,M
Boys,67.13,9,Jacob Tillett,Caddo Mills,65.23,158.76,90.72,161.03,410.5,Single-ply,SBD,M
Boys,67.13,10,Felix Brito,Royse City,65.32,170.1,79.38,156.49,405.97,Single-ply,SBD,M
Boys,67.13,11,Houston Patterson,Justin Northwest,66.95,145.15,102.06,158.76,405.97,Single-ply,SBD,M
Boys,67.13,12,James West,Quinlan Ford,67.13,136.08,90.72,147.42,374.21,Single-ply,SBD,M
Boys,67.13,13,Trinstin Aleman,North Mesquite,62.32,129.27,92.99,142.88,365.14,Single-ply,SBD,M
Boys,67.13,14,Hayden Hollon,Cumby,65.32,122.47,65.77,145.15,333.39,Single-ply,SBD,M
Boys,67.13,15,Denton Bridges,Terrell,62.32,120.2,86.18,115.67,322.05,Single-ply,SBD,M
Boys,67.13,16,Jacob Holly,Kaufman,67.13,142.88,102.06,68.04,312.98,Single-ply,SBD,M
Boys,67.13,17,Charles Willman,Quinlan Ford,66.22,113.4,65.77,129.27,308.44,Single-ply,SBD,M
Boys,67.13,18,Preston Morris,North Forney,61.51,115.67,65.77,122.47,303.91,Single-ply,SBD,M
Boys,67.13,19,Bryan Simms,Nevada Community,63.59,61.23,61.23,83.91,206.38,Single-ply,SBD,M
Boys,67.13,DQ,Kason Freelen,Lone Oak,67.13,142.88,,,,Single-ply,SBD,M
Boys,74.84,1,Caleb Skahan,Caddo Mills,72.94,215.46,131.54,222.26,569.26,Single-ply,SBD,M
Boys,74.84,2,Marqus Newby,Caddo Mills,70.76,192.78,111.13,226.8,530.7,Single-ply,SBD,M
Boys,74.84,3,Anthony Wagner,Garland Rowlett,72.39,190.51,136.08,204.12,530.7,Single-ply,SBD,M
Boys,74.84,4,Arquel Rainwater,South Garland,74.75,183.7,120.2,183.7,487.61,Single-ply,SBD,M
Boys,74.84,5,Treylon Taylor,Sherman,73.48,176.9,115.67,185.97,478.54,Single-ply,SBD,M
Boys,74.84,6,Dillon Bonesteel,North Mesquite,69.94,163.29,113.4,181.44,458.13,Single-ply,SBD,M
Boys,74.84,7,Dra'Lyne Ricks,North Mesquite,74.84,163.29,102.06,192.78,458.13,Single-ply,SBD,M
Boys,74.84,8,Cody Prince,Lone Oak,68.49,165.56,108.86,179.17,453.59,Single-ply,SBD,M
Boys,74.84,9,Xavier Battee,Kaufman,72.21,170.1,102.06,181.44,453.59,Single-ply,SBD,M
Boys,74.84,10,Mason Baker,Justin Northwest,74.21,158.76,102.06,185.97,446.79,Single-ply,SBD,M
Boys,74.84,11,Steven Letlow,Kaufman,70.67,161.03,92.99,181.44,435.45,Single-ply,SBD,M
Boys,74.84,12,Trey Porter,South Garland,74.21,147.42,104.33,183.7,435.45,Single-ply,SBD,M
Boys,74.84,13,Tim Herman,Celeste,72.85,185.97,92.99,151.95,430.91,Single-ply,SBD,M
Boys,74.84,14,Brennen Fletcher,Nevada Community,72.76,158.76,92.99,176.9,428.64,Single-ply,SBD,M
Boys,74.84,15,Eddie Moreno,Denison,69.94,151.95,102.06,167.83,421.84,Single-ply,SBD,M
Boys,74.84,16,Chandler Tolbert,Royse City,74.84,151.95,92.99,176.9,421.84,Single-ply,SBD,M
Boys,74.84,17,Ty Tolleson,Lone Oak,73.94,151.95,90.72,172.37,415.04,Single-ply,SBD,M
Boys,74.84,18,Robert Clinard,North Forney,73.48,151.95,102.06,158.76,412.77,Single-ply,SBD,M
Boys,74.84,19,Aaron Matthews,Denison,69.22,142.88,88.45,147.42,378.75,Single-ply,SBD,M
Boys,82.1,20,Eli Gammage,Lone Oak,75.07,138.35,86.18,154.22,378.75,Single-ply,SBD,M
Boys,74.84,21,Cyle Ferrell,Nevada Community,73.48,129.27,102.06,129.27,360.61,Single-ply,SBD,M
Boys,82.1,22,Evan Raymond,Cumby,75.07,131.54,70.31,149.69,351.53,Single-ply,SBD,M
Boys,74.84,23,John Evans,Cumby,70.31,111.13,79.38,111.13,301.64,Single-ply,SBD,M
Boys,89.81,1,Austin Arnold,Denison,82.28,215.46,170.1,226.8,612.35,Single-ply,SBD,M
Boys,82.1,2,ShaCody Williams,Sherman,77.11,190.51,140.61,204.12,535.24,Single-ply,SBD,M
Boys,82.1,3,Lane Allen,Justin Northwest,82.01,165.56,145.15,183.7,494.42,Single-ply,SBD,M
Boys,82.1,4,Colton Hensley,Denison,77.75,170.1,102.06,195.04,467.2,Single-ply,SBD,M
Boys,82.1,5,Courbin Burton,South Garland,79.38,163.29,111.13,181.44,455.86,Single-ply,SBD,M
Boys,82.1,6,Jimmy Hill,Caddo Mills,75.75,181.44,113.4,142.88,437.72,Single-ply,SBD,M
Boys,82.1,7,Clay Wilkerson,Rockwall-Heath,80.74,167.83,104.33,163.29,435.45,Single-ply,SBD,M
Boys,82.1,8,Edgar Gomez,Garland Rowlett,80.83,142.88,111.13,181.44,435.45,Single-ply,SBD,M
Boys,82.1,9,Hayden Tijerina,Kaufman,81.92,158.76,99.79,172.37,430.91,Single-ply,SBD,M
Boys,82.1,10,Bryce Evilsizer,Quinlan Ford,82.01,172.37,74.84,183.7,430.91,Single-ply,SBD,M
Boys,82.1,11,Bryant Leslie,Nevada Community,82.1,156.49,97.52,147.42,401.43,Single-ply,SBD,M
Boys,82.1,12,Dylon Lister,Quinlan Ford,79.56,154.22,83.91,154.22,392.36,Single-ply,SBD,M
Boys,82.1,13,Tanner McMillian,Royse City,78.02,129.27,90.72,142.88,362.87,Single-ply,SBD,M
Boys,82.1,14,Grant Lane,Sherman,78.93,145.15,79.38,138.35,362.87,Single-ply,SBD,M
Boys,82.1,15,Eddie Rodriguez,Farmersville,82.1,122.47,92.99,140.61,356.07,Single-ply,SBD,M
Boys,99.79,1,Giresse Forchu,North Forney,89.9,256.28,151.95,249.48,657.71,Single-ply,SBD,M
Boys,89.81,2,Nigel Hasty,Garland Rowlett,86.27,206.38,136.08,231.33,573.79,Single-ply,SBD,M
Boys,89.81,3,Cody Duffy,Justin Northwest,89.63,226.8,149.69,197.31,573.79,Single-ply,SBD,M
Boys,99.79,4,Dakota Mathers,South Garland,90.04,190.51,129.27,192.78,512.56,Single-ply,SBD,M
Boys,89.81,5,Tyler McClain,Lone Oak,89.09,183.7,127.01,195.04,505.76,Single-ply,SBD,M
Boys,89.81,6,Jared Loftis,Royse City,89.81,197.31,106.59,201.85,505.76,Single-ply,SBD,M
Boys,89.81,7,Sam Rushing,Royse City,84.46,185.97,129.27,183.7,498.95,Single-ply,SBD,M
Boys,89.81,8,Miguel Sepulveda,North Forney,85.37,190.51,120.2,185.97,496.68,Single-ply,SBD,M
Boys,99.79,9,Ray Davis,Rockwall-Heath,89.9,185.97,120.2,188.24,494.42,Single-ply,SBD,M
Boys,89.81,10,Joel Dunn,Royse City,83.91,208.65,117.93,163.29,489.88,Single-ply,SBD,M
Boys,89.81,11,Garrett Westphal,Rockwall-Heath,88.99,170.1,120.2,192.78,483.08,Single-ply,SBD,M
Boys,89.81,12,Elijah Huntley,Royse City,83.91,185.97,111.13,176.9,474,Single-ply,SBD,M
Boys,89.81,13,Juan de la Cruz,Kaufman,88.18,174.63,108.86,190.51,474,Single-ply,SBD,M
Boys,89.81,14,Alec Smith,Celeste,84.19,163.29,122.47,183.7,469.47,Single-ply,SBD,M
Boys,89.81,15,Quannyas White,Terrell,89.81,170.1,129.27,165.56,464.93,Single-ply,SBD,M
Boys,89.81,16,Joseph Martinez,Rockwall,87.63,163.29,108.86,181.44,453.59,Single-ply,SBD,M
Boys,89.81,17,Elijah Banks,North Mesquite,88.72,163.29,117.93,158.76,439.98,Single-ply,SBD,M
Boys,89.81,18,Ryan Gregory,Quinlan Ford,89.54,167.83,108.86,163.29,439.98,Single-ply,SBD,M
Boys,89.81,19,Corey Aspell,Denison,85.55,156.49,92.99,170.1,419.57,Single-ply,SBD,M
Boys,89.81,20,Elier Avila,Kaufman,87.45,170.1,92.99,154.22,417.3,Single-ply,SBD,M
Boys,89.81,21,Beau Hughes,North Forney,86.09,156.49,81.65,170.1,408.23,Single-ply,SBD,M
Boys,89.81,22,Nick Davis,Farmersville,85.28,142.88,88.45,147.42,378.75,Single-ply,SBD,M
Boys,89.81,23,Noah Raney,Sherman,85.73,124.74,83.91,145.15,353.8,Single-ply,SBD,M
Boys,89.81,24,Dillon Wieland,Terrell,89.81,136.08,79.38,131.54,347,Single-ply,SBD,M
Boys,99.79,25,Tyler Bryant,Quinlan Ford,89.99,81.65,52.16,113.4,247.21,Single-ply,SBD,M
Boys,89.81,DQ,Jacob Eland,Nevada Community,89.81,,,,,Single-ply,SBD,M
Boys,99.79,1,Terry Jackson,North Forney,99.06,242.67,156.49,229.06,628.23,Single-ply,SBD,M
Boys,99.79,2,Leo Garcia,Justin Northwest,99.16,231.33,145.15,240.4,616.89,Single-ply,SBD,M
Boys,99.79,3,Carter James,Justin Northwest,96.71,215.46,127.01,244.94,587.4,Single-ply,SBD,M
Boys,99.79,4,Clay Eppler,Denison,96.16,197.31,147.42,229.06,573.79,Single-ply,SBD,M
Boys,99.79,5,Thomas Johnson,Royse City,99.79,217.72,136.08,204.12,557.92,Single-ply,SBD,M
Boys,99.79,6,Derrek Clayton,Sherman,96.8,226.8,117.93,197.31,542.04,Single-ply,SBD,M
Boys,99.79,7,Josh Heath,Denison,97.61,204.12,117.93,210.92,532.97,Single-ply,SBD,M
Boys,99.79,8,Calvin Estrada,Garland Rowlett,92.8,208.65,120.2,188.24,517.1,Single-ply,SBD,M
Boys,99.79,9,Leo Delgado,South Garland,99.06,208.65,115.67,185.97,510.29,Single-ply,SBD,M
Boys,99.79,10,Andrew Hughes,Royse City,99.79,197.31,138.35,172.37,508.02,Single-ply,SBD,M
Boys,99.79,11,Joey Clegg,Garland Rowlett,94.98,170.1,136.08,185.97,492.15,Single-ply,SBD,M
Boys,99.79,12,Jalen Scott,North Mesquite,98.61,181.44,120.2,181.44,483.08,Single-ply,SBD,M
Boys,99.79,13,Garrett Smith,Kaufman,92.35,167.83,122.47,176.9,467.2,Single-ply,SBD,M
Boys,99.79,14,Jonathan Dunson,Kaufman,90.54,190.51,106.59,167.83,464.93,Single-ply,SBD,M
Boys,99.79,15,Dallas Millhaaisen,Quinlan Ford,99.61,172.37,102.06,181.44,455.86,Single-ply,SBD,M
Boys,99.79,16,Chris Hinckley,Rockwall,94.08,136.08,115.67,158.76,410.5,Single-ply,SBD,M
Boys,109.77,1,Clayton McGilvray,Justin Northwest,102.97,249.48,145.15,242.67,637.3,Single-ply,SBD,M
Boys,109.77,2,Dakotta Cooksy,Quinlan Ford,100.43,240.4,149.69,222.26,612.35,Single-ply,SBD,M
Boys,109.77,3,Anthony Ringenberg,Cumby,102.87,235.87,122.47,226.8,585.13,Single-ply,SBD,M
Boys,109.77,4,Jayden Stumbaugh,Denison,109.68,219.99,145.15,215.46,580.6,Single-ply,SBD,M
Boys,109.77,5,Jackson Bolin,Rockwall,108.59,188.24,158.76,197.31,544.31,Single-ply,SBD,M
Boys,109.77,6,Darrien McQueen,Royse City,103.69,197.31,106.59,204.12,508.02,Single-ply,SBD,M
Boys,109.77,7,Justin Olsen,South Garland,109.04,192.78,117.93,181.44,492.15,Single-ply,SBD,M
Boys,109.77,8,Zak Mirza,Garland Rowlett,107.86,181.44,117.93,179.17,478.54,Single-ply,SBD,M
Boys,109.77,9,Colton Busby,Lone Oak,109.5,204.12,122.47,204.12,530.7,Single-ply,SBD,M
Boys,109.77,9,James Weimer,Nevada Community,104.78,192.78,97.52,181.44,471.74,Single-ply,SBD,M
Boys,109.77,10,Christian Crook,Rockwall,103.33,149.69,113.4,165.56,428.64,Single-ply,SBD,M
Boys,109.77,11,Sam Chambliss,Celeste,100.52,154.22,102.06,165.56,421.84,Single-ply,SBD,M
Boys,109.77,12,Taylor Hartman,Nevada Community,108.86,149.69,92.99,154.22,396.89,Single-ply,SBD,M
Boys,109.77,13,Joseph Martin,Cumby,108.23,142.88,86.18,165.56,394.63,Single-ply,SBD,M
Boys,109.77,DQ,Connor Counce,Denison,108.95,,,,,Single-ply,SBD,M
Boys,124.74,1,Travis Stubblefield,Justin Northwest,118.39,249.48,181.44,235.87,666.78,Single-ply,SBD,M
Boys,124.74,2,Ethan Dobbs,Rockwall-Heath,119.75,240.4,154.22,231.33,625.96,Single-ply,SBD,M
Boys,124.74,3,Evan Higbee,Rockwall-Heath,112.94,235.87,131.54,231.33,598.74,Single-ply,SBD,M
Boys,124.74,4,Jaymes Stumbaugh,Denison,119.75,226.8,156.49,206.38,589.67,Single-ply,SBD,M
Boys,124.74,5,Joel Lopez,Farmersville,121.02,235.87,129.27,204.12,569.26,Single-ply,SBD,M
Boys,124.74,6,David Allen,Quinlan Ford,112.67,217.72,99.79,222.26,539.77,Single-ply,SBD,M
Boys,124.74,7,Mike Nichols,North Mesquite,121.83,208.65,122.47,204.12,535.24,Single-ply,SBD,M
Boys,124.74,8,Jack Willeford,Farmersville,122.11,219.99,129.27,183.7,532.97,Single-ply,SBD,M
Boys,124.74,10,Alex Gomez,Garland Rowlett,113.4,181.44,115.67,190.51,487.61,Single-ply,SBD,M
Boys,124.74,11,Trevor Adam,North Forney,123.83,192.78,104.33,181.44,478.54,Single-ply,SBD,M
Boys,124.74,12,Nic Blain,Caddo Mills,115.71,199.58,127.01,147.42,474,Single-ply,SBD,M
Boys,124.74,13,Osvaldo Casteneda,Royse City,115.67,204.12,113.4,154.22,471.74,Single-ply,SBD,M
Boys,124.74,14,Josh Campbell,Caddo Mills,122.38,183.7,97.52,170.1,451.32,Single-ply,SBD,M
Boys,124.74,DQ,Glen Goode,Cumby,118.66,,,,,Single-ply,SBD,M
Boys,124.74,DQ,Justin Bigelow,Denison,116.21,,,,,Single-ply,SBD,M
Boys,124.74,DQ,Brian Lorts,Rockwall,114.94,,,,,Single-ply,SBD,M
Boys,124.74,DQ,Matt Akins,Rockwall,120.75,142.88,,,,Single-ply,SBD,M
Boys,124.74,DQ,James Yarbrough,Terrell,116.03,,,151.95,,Single-ply,SBD,M
Boys,124.74,DQ,Terrance Walker,North Forney,110.95,188.24,,,,Single-ply,SBD,M
Boys,124.74+,1,Cris Whitaker,Caddo Mills,129.36,263.08,154.22,226.8,644.1,Single-ply,SBD,M
Boys,124.74+,2,Matt Hawkins,Nevada Community,137.08,260.82,131.54,233.6,625.96,Single-ply,SBD,M
Boys,124.74+,3,Sean Langley,South Garland,136.98,285.76,149.69,188.24,623.69,Single-ply,SBD,M
Boys,124.74+,4,Zelarious Taylor,South Garland,136.08,226.8,165.56,188.24,580.6,Single-ply,SBD,M
Boys,124.74+,5,Chandler Layer,Garland Rowlett,131.54,226.8,124.74,204.12,555.65,Single-ply,SBD,M
Boys,124.74+,6,Adam Waw,Sherman,150.96,226.8,133.81,188.24,548.85,Single-ply,SBD,M
Boys,124.74+,7,Keyuna Hastings,Sherman,133.36,233.6,124.74,176.9,535.24,Single-ply,SBD,M
Boys,124.74+,8,Josh Peterson,North Mesquite,138.98,226.8,115.67,188.24,530.7,Single-ply,SBD,M
Boys,124.74+,9,Amine Elhaili,Rockwall,126.46,188.24,111.13,206.38,505.76,Single-ply,SBD,M
Boys,124.74+,10,Blake Cunningham,Denison,135.9,188.24,102.06,181.44,471.74,Single-ply,SBD,M
Boys,124.74+,11,Dezmand Candelarie,North Mesquite,129,170.1,120.2,170.1,460.4,Single-ply,SBD,M
Boys,124.74+,12,Hunter Brogdon,North Forney,126.55,172.37,102.06,181.44,455.86,Single-ply,SBD,M
Boys,124.74+,DQ,Rj Carranza,Nevada Community,144.33,,,,,Single-ply,SBD,M
