Name,State,Sex,Event,Equipment,Division,Age,WeightClassKg,BodyweightKg,Squat1Kg,Squat2Kg,Squat3Kg,Best3SquatKg,Bench1Kg,Bench2Kg,Bench3Kg,Best3BenchKg,Deadlift1Kg,Deadlift2Kg,Deadlift3Kg,Best3DeadliftKg,TotalKg,Place
Russell Barlow,ME,M,SBD,Multi-ply,Juniors,20,125,121.11,265,287.5,305,305,140,-147.5,147.5,147.5,242.5,265,-277.5,265,717.5,1
George Chasen-Lapine,ME,M,SBD,Wraps,Teen,19,90,83.91,195,207.5,-212.5,207.5,117.5,122.5,-125,122.5,192.5,210,-217.5,210,540,1
Jared Scnell,PA,M,SBD,Wraps,Teen,19,82.5,79.38,172.5,177.5,185,185,115,120,-125,120,192.5,207.5,212.5,212.5,517.5,1
Noah Tibbits,ME,M,SBD,Wraps,Teen,16,140,127.01,232.5,,,232.5,-167.5,167.5,-182.5,167.5,210,227.5,-237.5,227.5,627.5,1
Tony Black,ME,M,SBD,Wraps,Teen,18,75,74.84,175,187.5,197.5,197.5,87.5,-110,-110,87.5,135,160,187.5,187.5,472.5,1
Allen Schroeder,CT,M,SBD,Wraps,Teen,18,82.5,79.38,142.5,157.5,172.5,172.5,97.5,102.5,107.5,107.5,145,160,-165,160,440,2
Zach Hutchins,ME,M,SBD,Wraps,Teen,19,90,87.09,160,-177.5,-182.5,160,102.5,107.5,-115,107.5,165,185,-192.5,185,452.5,2
Duke Reddoch II,ME,M,SBD,Wraps,Teen,18,90,88.45,142.5,155,162.5,162.5,-92.5,-97.5,97.5,97.5,180,192.5,-197.5,192.5,452.5,3
Michael Pindell,ME,M,SBD,Wraps,Masters 40-49,45,100,92.53,-137.5,147.5,157.5,157.5,120,125,-130,125,177.5,,,177.5,460,1
Ray Simoglou,ME,M,SBD,Multi-ply,Masters 50+,53,100,93.89,230,252.5,-272.5,252.5,157.5,170,-180,170,-237.5,237.5,250,250,672.5,3
RJ Pursell,MA,M,SBD,Multi-ply,Masters 50+,52,100,99.34,192.5,227.5,250,250,-192.5,192.5,-210,192.5,192.5,220,237.5,237.5,680,2
Steve Cote,ME,M,SBD,Multi-ply,Masters 50+,59,100,97.07,320,-340,,320,102.5,137.5,,137.5,227.5,242.5,,242.5,700,1
Michael Socoby,ME,M,SBD,Wraps,Masters 50+,61,140+,141.52,252.5,277.5,,277.5,157.5,172.5,-177.5,172.5,247.5,265,272.5,272.5,722.5,1
Mark Ironfield,MA,M,SBD,Wraps,Masters 50+,55,110,105.69,227.5,250,260,260,165,175,180,180,272.5,287.5,,287.5,727.5,1
George Sotirakos,MA,M,B,Multi-ply,Masters 40-49,44,125,110.22,,,,,282.5,305,320,320,,,,,320,1
Frank Ventriglia Jr,MA,M,B,Multi-ply,Masters 40-49,42,110,103.87,,,,,105,-120,-120,105,,,,,105,1
Frank Ventriglia Sr,MA,M,B,Multi-ply,Masters 50+,67,125,113.85,,,,,80,-90,-90,80,,,,,80,1
Pam McKeage,ME,F,SBD,Multi-ply,Open,34,75,69.4,47.5,55,60,60,45,47.5,-50,47.5,85,92.5,-97.5,92.5,200,1
Lauren Dyer,ME,F,SBD,Wraps,Open,25,60,59.87,137.5,147.5,155,155,60,65,70,70,165,175,185,185,410,1
Sarah Seitz,ME,F,SBD,Wraps,Open,26,67.5,65.77,100,110,115,115,52.5,60,-70,60,110,122.5,130,130,305,1
Jaclyn Welch,ME,F,SBD,Wraps,Open,21,67.5,63.05,-95,95,105,105,55,60,62.5,62.5,102.5,115,127.5,127.5,295,2
Caitlin Gusk,ME,F,SBD,Wraps,Open,24,60,58.51,90,97.5,102.5,102.5,57.5,62.5,-65,62.5,95,-102.5,102.5,102.5,267.5,2
Chelsea Blanchard,ME,F,SBD,Wraps,Open,21,67.5,65.32,97.5,-105,-110,97.5,50,-57.5,57.5,57.5,85,100,107.5,107.5,262.5,3
Jennifer Minieri,ME,F,SBD,Wraps,Open,22,67.5,61.69,70,-80,-80,70,42.5,-47.5,50,50,85,92.5,102.5,102.5,222.5,4
Julia Panepinto,ME,F,SBD,Wraps,Teen,19,75,72.57,102.5,112.5,-127.5,112.5,57.5,62.5,-65,62.5,92.5,105,-120,105,280,1
Erica Guay,ME,F,SBD,Wraps,Masters 40-49,40,56,55.34,97.5,-117.5,125,125,52.5,57.5,-60,57.5,100,115,125,125,307.5,1
Jen Small,ME,F,SBD,Wraps,Masters 40-49,48,75,74.84,92.5,-97.5,-97.5,92.5,57.5,60,-62.5,60,137.5,147.5,-150,147.5,300,1
Carolyn Braun,ME,F,SBD,Multi-ply,Masters 50+,60,67.5,63.5,97.5,102.5,107.5,107.5,52.5,70,75,75,97.5,105,115,115,297.5,1
Jean Wormwood,ME,F,SBD,Wraps,Masters 50+,52,90+,115.21,60,75,92.5,92.5,57.5,65,-75,65,62.5,77.5,90,90,247.5,1
Slav Babayan,ME,M,SBD,Multi-ply,Open,35,100,98.88,265,287.5,310,310,217.5,235,245,245,265,285,307.5,307.5,862.5,1
Mike Hamm,ME,M,SBD,Multi-ply,Open,24,100,99.34,227.5,250,265,265,145,157.5,165,165,220,250,265,265,695,2
Gabe Johnson,ME,M,SBD,Multi-ply,Open,22,100,93.44,227.5,247.5,-252.5,247.5,142.5,152.5,-155,152.5,215,-220,-220,215,615,3
Anthony Petrino,ME,M,SBD,Multi-ply,Open,58,140,137.44,-365,365,387.5,387.5,295,-320,-320,295,230,250,275,275,957.5,1
Hank Richards,ME,M,SBD,Multi-ply,Open,23,100,98.43,275,287.5,302.5,302.5,-185,-195,-195,,-247.5,247.5,-257.5,247.5,,DQ
Mark Zaccadelli,ME,M,SBD,Wraps,Open,23,67.5,63.96,150,162.5,185,185,135,145,-155,145,185,192.5,200,200,530,1
Gus Brown,ME,M,SBD,Wraps,Open,19,75,73.94,177.5,185,192.5,192.5,112.5,122.5,-127.5,122.5,217.5,230,235,235,550,1
Dustin Hedgepath,ME,M,SBD,Wraps,Open,24,75,68.04,102.5,107.5,-125,107.5,97.5,100,102.5,102.5,137.5,142.5,155,155,365,2
Zachary Childs,ME,M,SBD,Wraps,Open,22,82.5,81.19,192.5,202.5,-212.5,202.5,-140,142.5,-147.5,142.5,227.5,235,242.5,242.5,587.5,2
Hunter Sprague-Nason,ME,M,SBD,Wraps,Open,18,82.5,82.1,185,210,222.5,222.5,110,120,-127.5,120,220,237.5,247.5,247.5,590,1
Ryan Whittier,ME,M,SBD,Wraps,Open,17,82.5,78.93,110,132.5,-147.5,132.5,70,87.5,-100,87.5,130,147.5,-185,147.5,367.5,3
Dante Edgerly,ME,M,SBD,Wraps,Open,18,90,88.9,110,140,147.5,147.5,100,112.5,120,120,137.5,162.5,185,185,452.5,4
Nicholas Hodgdon,ME,M,SBD,Wraps,Open,23,90,88.45,127.5,140,150,150,127.5,-140,-142.5,127.5,185,192.5,205,205,482.5,3
Michael Johnson,ME,M,SBD,Wraps,Open,26,90,86.64,160,170,190,190,117.5,125,132.5,132.5,202.5,217.5,225,225,547.5,2
Ryan Whelan,ME,M,SBD,Wraps,Open,26,90,89.81,195,205,-210,205,135,140,-145,140,215,230,-240,230,575,1
Mert Gould,ME,M,SBD,Wraps,Open,31,100,97.98,205,217.5,227.5,227.5,147.5,152.5,,152.5,240,250,257.5,257.5,637.5,1
Dustin Pepin,ME,M,SBD,Wraps,Open,29,100,96.62,272.5,-287.5,287.5,287.5,-182.5,-190,-190,,-285,,,,,DQ
Travis Dyer,ME,M,SBD,Wraps,Open,26,110,105.23,275,-287.5,295,295,185,190,-192.5,190,287.5,302.5,,302.5,787.5,1
Chandan McCall,ME,M,SBD,Wraps,Open,18,110,109.32,172.5,187.5,197.5,197.5,125,142.5,-150,142.5,100,,,100,440,4
Austin Talgo,ME,M,SBD,Wraps,Open,20,110,103.87,155,-172.5,185,185,110,120,-137.5,120,200,210,-227.5,210,515,3
Cormac Walsh,ME,M,SBD,Wraps,Open,22,110,103.42,230,240,245,245,140,-150,-150,140,257.5,-272.5,-272.5,257.5,642.5,2
Anthony Mureno,ME,M,SBD,Wraps,Open,34,125,112.49,295,320,335,335,190,197.5,207.5,207.5,302.5,-320,-320,302.5,845,1
Adedire Fakorede,ME,M,SBD,Wraps,Open,21,140,135.17,230,240,255,255,170,182.5,185,185,272.5,-287.5,287.5,287.5,727.5,1
