Division,WeightClassKg,Place,Name,Team,BodyweightKg,Best3SquatKg,Best3BenchKg,Best3DeadliftKg,TotalKg,Equipment,Event,Sex
Boys,51.71,1,Jose Gonzalez,Hillsboro,51.71,122.47,70.31,127.01,319.78,Single-ply,SBD,M
Boys,51.71,2,Dj Williams,Everman,49.17,124.74,61.23,127.01,312.98,Single-ply,SBD,M
Boys,51.71,3,Chase Paschal,Blooming Grove,50.8,111.13,58.97,124.74,294.84,Single-ply,SBD,M
Boys,51.71,4,Roberto Ortiz,Venus,48.53,108.86,65.77,111.13,285.76,Single-ply,SBD,M
Boys,51.71,5,Jakob Jankowski,Dawson,50.17,88.45,43.09,106.59,238.14,Single-ply,SBD,M
Boys,51.71,6,Nick Turner,Mexia,48.26,83.91,58.97,92.99,235.87,Single-ply,SBD,M
Boys,51.71,7,Victor Garza,Meridian,47.08,90.72,47.63,83.91,222.26,Single-ply,SBD,M
Boys,51.71,8,Macon Hurford,Blooming Grove,51.71,79.38,49.9,83.91,213.19,Single-ply,SBD,M
Boys,51.71,DQ,Jackson Usery,Blooming Grove,50.8,,,,,Single-ply,SBD,M
Boys,55.79,1,Diego Rivera,Mexia,54.43,188.24,108.86,188.24,485.34,Single-ply,SBD,M
Boys,55.79,2,Eduardo Perez,Venus,55.52,185.97,90.72,185.97,462.66,Single-ply,SBD,M
Boys,55.79,3,Joe Velasquez,Blooming Grove,53.34,138.35,70.31,145.15,353.8,Single-ply,SBD,M
Boys,55.79,4,Lucas Walker,Dawson,55.16,99.79,56.7,122.47,278.96,Single-ply,SBD,M
Boys,55.79,DQ,Gabe Leal,Venus,55.61,,,,,Single-ply,SBD,M
Boys,59.87,1,Sergio Watkins,Blooming Grove,58.6,185.97,99.79,183.7,469.47,Single-ply,SBD,M
Boys,59.87,2,Alex Schaefer,Venus,59.33,179.17,95.25,185.97,460.4,Single-ply,SBD,M
Boys,59.87,3,Zaahid Abdullah,Waxahachie Life,58.6,163.29,104.33,179.17,446.79,Single-ply,SBD,M
Boys,59.87,4,Ricardo Garcia,Mexia,59.87,140.61,83.91,172.37,396.89,Single-ply,SBD,M
Boys,59.87,5,Haydon Isbell,Teague,58.79,136.08,83.91,149.69,369.68,Single-ply,SBD,M
Boys,59.87,6,Logan Heller,Mexia,59.42,127.01,72.57,131.54,331.12,Single-ply,SBD,M
Boys,59.87,7,Coby Bollig,Whitney,58.79,131.54,70.31,122.47,324.32,Single-ply,SBD,M
Boys,59.87,8,Matthew Martin,Axtell,56.43,113.4,72.57,122.47,308.44,Single-ply,SBD,M
Boys,59.87,9,Ashton Buxkemper,Hillsboro,58.97,102.06,72.57,127.01,301.64,Single-ply,SBD,M
Boys,59.87,DQ,Nathan Jones,Corsicana Mildred,56.43,113.4,74.84,,,Single-ply,SBD,M
Boys,67.13,1,Israel Castillo,Venus,66.5,217.72,106.59,222.26,546.58,Single-ply,SBD,M
Boys,67.13,2,Ricardo Alvarez,Alvarado,64.86,183.7,92.99,176.9,453.59,Single-ply,SBD,M
Boys,67.13,3,Lucas Zepeda,Waxahachie Life,66.77,174.63,83.91,176.9,435.45,Single-ply,SBD,M
Boys,67.13,4,Billy Gann,Axtell,65.86,165.56,83.91,147.42,396.89,Single-ply,SBD,M
Boys,67.13,5,Rytwann Lee,Everman,65.14,147.42,88.45,158.76,394.63,Single-ply,SBD,M
Boys,67.13,6,Adam Elkins,Dawson,62.05,158.76,83.91,145.15,387.82,Single-ply,SBD,M
Boys,67.13,7,Savon Marks,Hillsboro,67.13,127.01,97.52,147.42,371.95,Single-ply,SBD,M
Boys,67.13,8,Javier Trejo,Hillsboro,63.5,133.81,77.11,145.15,356.07,Single-ply,SBD,M
Boys,67.13,9,Levi Elkins,Dawson,67.13,147.42,72.57,136.08,356.07,Single-ply,SBD,M
Boys,67.13,DQ,Langford Chris,Blooming Grove,65.86,,,,,Single-ply,SBD,M
Boys,67.13,DQ,Villegas Manny,Blooming Grove,65.68,165.56,111.13,,,Single-ply,SBD,M
Boys,67.13,DQ,Ricky Randall,Waxahachie Life,63.68,158.76,,,,Single-ply,SBD,M
Boys,74.84,1,Kameron Sisson,Whitney,71.67,195.04,104.33,204.12,503.49,Single-ply,SBD,M
Boys,74.84,2,Blake Boyd,Alvarado,73.3,181.44,115.67,174.63,471.74,Single-ply,SBD,M
Boys,74.84,3,Zeke Gonzalez,Hillsboro,70.31,172.37,113.4,181.44,467.2,Single-ply,SBD,M
Boys,74.84,4,Lionel Duran,Grandview,71.49,170.1,129.27,156.49,455.86,Single-ply,SBD,M
Boys,74.84,5,Jakob Whisenhunt,Rio Vista,71.85,158.76,108.86,172.37,439.98,Single-ply,SBD,M
Boys,74.84,6,Myron Phillips,Mexia,70.85,165.56,104.33,165.56,435.45,Single-ply,SBD,M
Boys,74.84,7,Marco Meza,Hillsboro,69.85,188.24,90.72,154.22,433.18,Single-ply,SBD,M
Boys,74.84,8,Trey Atkeisson,Corsicana Mildred,69.4,151.95,95.25,142.88,390.09,Single-ply,SBD,M
Boys,74.84,9,Logan Connell,Axtell,68.4,86.18,56.7,95.25,238.14,Single-ply,SBD,M
Boys,82.1,1,Azaya Patrick,Teague,82.1,215.46,133.81,219.99,569.26,Single-ply,SBD,M
Boys,82.1,2,Canon Arnold,Alvarado,81.65,208.65,133.81,192.78,535.24,Single-ply,SBD,M
Boys,82.1,3,Neiman Turner,Hillsboro,79.38,185.97,127.01,217.72,530.7,Single-ply,SBD,M
Boys,82.1,4,Soloman Alvarado,Axtell,76.11,151.95,90.72,181.44,424.11,Single-ply,SBD,M
Boys,82.1,5,Dylan Felan,Meridian,75.66,158.76,88.45,158.76,405.97,Single-ply,SBD,M
Boys,82.1,6,Griffen Fallwell,Whitney,78.11,147.42,86.18,145.15,378.75,Single-ply,SBD,M
Boys,82.1,7,Jacob DeChaume,Dawson,76.48,104.33,70.31,106.59,281.23,Single-ply,SBD,M
Boys,82.1,DQ,Michael Flores,Hillsboro,79.38,,,,,Single-ply,SBD,M
Boys,82.1,DQ,Carson Rucks,Blooming Grove,79.11,,,,,Single-ply,SBD,M
Boys,89.81,1,Elias Reyes,Alvarado,83.55,208.65,111.13,206.38,526.17,Single-ply,SBD,M
Boys,89.81,2,Shane Carroll,Waxahachie Life,85.09,188.24,124.74,201.85,514.83,Single-ply,SBD,M
Boys,89.81,3,Damian Dominguez,Grandview,86.82,190.51,124.74,183.7,498.95,Single-ply,SBD,M
Boys,89.81,4,Edgar Guzman,Everman,87,192.78,102.06,192.78,487.61,Single-ply,SBD,M
Boys,89.81,5,Xander Webb,Alvarado,88.36,185.97,113.4,181.44,480.81,Single-ply,SBD,M
Boys,89.81,6,Derek Ford,Alvarado,89.81,181.44,108.86,183.7,474,Single-ply,SBD,M
Boys,89.81,7,Dylan Lee,Axtell,88.18,167.83,92.99,163.29,424.11,Single-ply,SBD,M
Boys,89.81,DQ,Jordan Kistler,Corsicana Mildred,89.72,,,,,Single-ply,SBD,M
Boys,89.81,DQ,Joctan Librado,Hillsboro,89.81,208.65,,,,Single-ply,SBD,M
Boys,89.81,DQ,Rolando Ramirez,Hillsboro,89.36,199.58,131.54,,,Single-ply,SBD,M
Boys,99.79,1,Cruz Villegas,Everman,99.16,260.82,127.01,263.08,650.91,Single-ply,SBD,M
Boys,99.79,2,Christopher Flores,Hillsboro,98.43,254.01,190.51,204.12,648.64,Single-ply,SBD,M
Boys,99.79,3,Justin Horn #1,Corsicana Mildred,99.79,215.46,158.76,204.12,578.33,Single-ply,SBD,M
Boys,99.79,4,Bryan Harwell,Waxahachie Life,94.26,222.26,120.2,215.46,557.92,Single-ply,SBD,M
Boys,109.77,1,Shamar Richardson,Dawson,109.77,190.51,136.08,204.12,530.7,Single-ply,SBD,M
Boys,109.77,2,Jorge Saldana,Grandview,108.05,215.46,127.01,181.44,523.9,Single-ply,SBD,M
Boys,109.77,3,Zane Guerra,Dawson,100.97,176.9,131.54,208.65,517.1,Single-ply,SBD,M
Boys,109.77,4,Kitt Wilder,Waxahachie Life,106.32,167.83,88.45,156.49,412.77,Single-ply,SBD,M
Boys,109.77,DQ,Charles Edwards,Everman,106.14,124.74,92.99,,,Single-ply,SBD,M
Boys,124.74,1,Willie Tutt,Everman,122.65,328.85,145.15,238.14,712.14,Single-ply,SBD,M
Boys,124.74,2,Daniel Hernandez,Everman,110.77,238.14,151.95,204.12,594.21,Single-ply,SBD,M
Boys,124.74,3,Travis Lemons,Teague,118.12,226.8,147.42,215.46,589.67,Single-ply,SBD,M
Boys,124.74,4,Reuel Barrett,Waxahachie Life,118.66,217.72,142.88,197.31,557.92,Single-ply,SBD,M
Boys,124.74,5,Christian Jimenez,Alvarado,117.48,174.63,117.93,174.63,467.2,Single-ply,SBD,M
Boys,124.74,6,Jahaziel Compean,Hillsboro,122.47,183.7,108.86,174.63,467.2,Single-ply,SBD,M
Boys,124.74,7,Ethan Cumins,Rio Vista,120.93,165.56,97.52,172.37,435.45,Single-ply,SBD,M
Boys,124.74,8,Hayden Keeney,Grandview,112.58,172.37,88.45,156.49,417.3,Single-ply,SBD,M
Boys,124.74,9,Tanner Drain,Blooming Grove,115.76,142.88,111.13,163.29,417.3,Single-ply,SBD,M
Boys,124.74,10,Tyler Crisp,Rio Vista,117.03,158.76,92.99,158.76,410.5,Single-ply,SBD,M
Boys,124.74,11,Trey McDonald,Grandview,111.58,124.74,86.18,158.76,369.68,Single-ply,SBD,M
Boys,124.74,DQ,Jeral Steward,Everman,115.94,219.99,147.42,,,Single-ply,SBD,M
Boys,124.74+,1,Caleb Reed,Everman,133.99,294.84,165.56,283.5,743.89,Single-ply,SBD,M
Boys,124.74+,2,Isaias Hernandez,Hillsboro,134.72,317.51,163.29,254.01,734.82,Single-ply,SBD,M
Boys,124.74+,3,Jaylin Hendrix,Everman,148.69,272.16,181.44,226.8,680.39,Single-ply,SBD,M
Boys,124.74+,4,Eddie Zuniga,Waxahachie Life,133.72,238.14,156.49,208.65,603.28,Single-ply,SBD,M
Boys,124.74+,5,Colton Deal,Waxahachie Life,144.97,233.6,117.93,215.46,566.99,Single-ply,SBD,M
Boys,124.74+,6,Jalan Henderson,Everman,127.64,181.44,138.35,192.78,512.56,Single-ply,SBD,M
Boys,124.74+,7,Kaleb Ferguson,Blooming Grove,125.65,183.7,129.27,195.04,508.02,Single-ply,SBD,M
Boys,124.74+,8,Josh Encinia,Dawson,136.53,185.97,111.13,142.88,439.98,Single-ply,SBD,M
Boys,,NS,Amir Fosten,Alvarado,,,,,,Single-ply,SBD,M
Boys,,NS,Austin Thompson,Alvarado,,,,,,Single-ply,SBD,M
Boys,,NS,Zac Birmingham,Alvarado,,,,,,Single-ply,SBD,M
Boys,,NS,Ashton Williams,Waxahachie Life,,,,,,Single-ply,SBD,M
Boys,,NS,Kenneth Richardson,Waxahachie Life,,,,,,Single-ply,SBD,M
Boys,,NS,Jordan Delgado,Meridian,,,,,,Single-ply,SBD,M
Boys,,NS,Carson Sifford,Teague,,,,,,Single-ply,SBD,M
Boys,,NS,Terry Reel,Teague,,,,,,Single-ply,SBD,M
Boys,,NS,Raymond Morgan,Whitney,,,,,,Single-ply,SBD,M
Boys,,NS,David Barrera,Venus,,,,,,Single-ply,SBD,M
Boys,,NS,Gino Lara,Venus,,,,,,Single-ply,SBD,M
Boys,,NS,Cade Lewis,Venus,,,,,,Single-ply,SBD,M
Boys,,NS,Max Cervantes,Mexia,,,,,,Single-ply,SBD,M
Boys,,NS,Dre'Vaun Cooper,Mexia,,,,,,Single-ply,SBD,M
Boys,,NS,Josh Beachum,Mexia,,,,,,Single-ply,SBD,M
Boys,,NS,Jakari Hackett,Mexia,,,,,,Single-ply,SBD,M
Boys,,NS,Jordan Rios,Mexia,,,,,,Single-ply,SBD,M
Boys,,NS,Bj Sunday,Mexia,,,,,,Single-ply,SBD,M
Boys,,NS,Brent Batch,Rio Vista,,,,,,Single-ply,SBD,M
Boys,,NS,Hunter Carpenter,Rio Vista,,,,,,Single-ply,SBD,M
Boys,,NS,Chance Harrah,Rio Vista,,,,,,Single-ply,SBD,M
Boys,,NS,Corbin Donoho,Corsicana Mildred,,,,,,Single-ply,SBD,M
Boys,,NS,Ray Reimim,Corsicana Mildred,,,,,,Single-ply,SBD,M
Boys,,NS,Charlie Flores,Blooming Grove,,,,,,Single-ply,SBD,M
Boys,,NS,Justin Winchester,Dawson,,,,,,Single-ply,SBD,M
Boys,,NS,Jacob Bayer,Grandview,,,,,,Single-ply,SBD,M
Boys,,NS,Bennett Cade,Grandview,,,,,,Single-ply,SBD,M
Boys,,NS,Joshua Flowers,Grandview,,,,,,Single-ply,SBD,M
Boys,,NS,Cade Fedor,Grandview,,,,,,Single-ply,SBD,M
Boys,,NS,Eric Rosson,Grandview,,,,,,Single-ply,SBD,M
