WeightClassKg,Sex,Division,Place,Name,CyrillicName,BirthDate,BodyweightKg,Best3SquatKg,Best3BenchKg,Best3DeadliftKg,TotalKg,Event,Equipment
59,M,Open,1,Vasil Kropivnitskiy,Василь Кропивницький,1993-05-08,58.94,190,135,135,460,SBD,Raw
59,M,Open,2,Rostislav Zherebtsov,Ростислав Жеребцов,1998-05-26,58.41,155,117.5,185,457.5,SBD,Raw
59,M,Open,3,Artem Nekritiy,Артем Некритий,1989-09-13,58.76,145,105,180,430,SBD,Raw
59,M,Open,4,Volodimir Penteleychuk,Володимир Пентелейчук,1997-12-01,58.6,115,90,132.5,337.5,SBD,Raw
59,M,Open,NS,Edgzr Dolgiy,Едгзр Долгий,1996-06-06,,,,,,SBD,Raw
59,M,Open,DQ,Petro Usatiy,Петро Усатий,1984-07-09,58.27,145,-100,192.5,,SBD,Raw
66,M,Open,1,Vasil Mitsa,Василь Мица,1989-12-09,65.78,220,135,250,605,SBD,Raw
66,M,Open,2,Vasil Oliynik,Василь Олійник,1994-01-15,65.69,210,127.5,235,572.5,SBD,Raw
66,M,Open,3,Sergiy Chernishov,Сергій Чернишов,1991-08-08,64.92,182.5,127.5,200,510,SBD,Raw
66,M,Open,4,Valeriy Dudash,Валерій Дудаш,1995-12-29,65.82,170,112.5,200,482.5,SBD,Raw
66,M,Open,5,Sergiy Olenchuk,Сергій Оленчук,1986-10-30,65.1,175,102.5,185,462.5,SBD,Raw
66,M,Open,6,Sergiy Shtapura,Сергій Штапура,1998-05-17,65.98,140,122.5,175,437.5,SBD,Raw
66,M,Open,NS,Oleksiy Gorniy,Олексій Горний,1992-09-03,,,,,,SBD,Raw
74,M,Open,1,Ruslan Rubay,Руслан Рубай,1990-07-09,73.12,222.5,165,240,627.5,SBD,Raw
74,M,Open,2,Vitaliy Bilozir,Віталій Білозір,1992-08-14,72.94,217.5,142.5,265,625,SBD,Raw
74,M,Open,3,Volodimir Makarenko,Володимир Макаренко,1993-08-20,71.82,205,157.5,242.5,605,SBD,Raw
74,M,Open,4,Anton Umanskiy,Антон Уманський,1994-08-04,73.33,237.5,132.5,235,605,SBD,Raw
74,M,Open,5,Maksim Saenko,Максим Саєнко,1992-08-15,73.96,200,115,275,590,SBD,Raw
74,M,Open,6,Igor Zvonarov,Ігор Звонарьов,2001-11-10,73.33,212.5,132.5,225,570,SBD,Raw
74,M,Open,7,Glib Makarov,Гліб Макаров,1994-08-07,72.16,180,130,235,545,SBD,Raw
74,M,Open,8,Rostislav Polonskiy,Ростислав Полонський,1978-10-22,73.34,170,122.5,240,532.5,SBD,Raw
74,M,Open,9,Taras Yurkiv,Тарас Юрків,1984-11-30,73.6,190,150,190,530,SBD,Raw
74,M,Open,10,Andriy Kozir,Андрій Козир,1991-04-18,72.71,180,130,190,500,SBD,Raw
74,M,Open,11,Evgen Shvirov,Євген Швирьов,1982-08-20,72.24,150,110,150,410,SBD,Raw
74,M,Open,DQ,Roman Luchin,Роман Лучин,1985-11-20,72.06,-190,,,,SBD,Raw
74,M,Open,DQ,Vitaliy Kulish,Віталій Куліш,1987-06-13,73.09,185,117.5,-245,,SBD,Raw
83,M,Open,1,Stanislav Zdrobilko,Станіслав Здробилко,1995-10-03,82.87,265,185,260,710,SBD,Raw
83,M,Open,2,Oleksiy Titov,Олексій Тітов,1994-09-02,80.56,245,160,250,655,SBD,Raw
83,M,Open,3,Maksim Gorkin,Максим Горкін,1985-08-30,81.21,212.5,147.5,285,645,SBD,Raw
83,M,Open,4,Sergiy Shustur,Сергій Шустур,1989-10-30,81.7,227.5,145,272.5,645,SBD,Raw
83,M,Open,5,Igor Parshin,Ігор Паршин,1983-02-11,82.4,232.5,142.5,260,635,SBD,Raw
83,M,Open,6,Andriy Nos,Андрій Нос,1993-06-04,82.75,230,160,235,625,SBD,Raw
83,M,Open,7,Vladislav Antonenko,Владислав Антоненко,1982-06-23,82.1,215,140,260,615,SBD,Raw
83,M,Open,8,Artem Fusar,Артем Фусарь,1994-09-05,81.57,215,147.5,240,602.5,SBD,Raw
83,M,Open,9,Volodimir Pervenko,Володимир Первенко,1994-01-04,82.65,217.5,155,227.5,600,SBD,Raw
83,M,Open,10,Roman Monastirskiy,Роман Монастирський,1980-11-30,82.68,215,160,225,600,SBD,Raw
83,M,Open,11,Mikola Kotiv,Микола Котів,1981-03-09,81.51,212.5,130,250,592.5,SBD,Raw
83,M,Open,12,Kirilo Kirilov,Кирило Кирилов,1988-08-17,82.04,200,145,240,585,SBD,Raw
83,M,Open,13,Denis Obukhovskiy,Денис Обуховський,1992-09-21,82.9,205,167.5,210,582.5,SBD,Raw
83,M,Open,14,Andriy Bilousov,Андрій Білоусов,1989-11-22,80.04,220,135,220,575,SBD,Raw
83,M,Open,15,Igor Andrusik,Ігор Андрусик,1988-02-04,80.32,190,140,245,575,SBD,Raw
83,M,Open,16,Kirilo Vlasyuk,Кирило Власюк,1989-08-01,81.52,207.5,135,222.5,565,SBD,Raw
83,M,Open,17,Taras Mochernyuk,Тарас Мочернюк,1986-02-19,76.69,190,150,220,560,SBD,Raw
83,M,Open,18,Vadim Kirik,Вадим Кирик,1993-01-14,82.25,200,127.5,220,547.5,SBD,Raw
83,M,Open,NS,Oleksandr Chernobay,Олександр Чернобай,1989-04-20,,,,,,SBD,Raw
83,M,Open,DQ,Vitaliy Fanta,Віталій Фанта,1982-10-22,82.56,207.5,-137.5,260,,SBD,Raw
83,M,Open,DQ,Andriy Dyatlov,Андрій Дятлов,1985-02-28,82.73,-197.5,,,,SBD,Raw
93,M,Open,1,Anatolii Novopismennyi,Анатолій Новописьменний,1996-12-27,91.8,315,197.5,337.5,850,SBD,Raw
93,M,Open,2,Vyacheslav Shutenko,Вячеслав Шутенко,1986-08-29,91.96,297.5,165,332.5,795,SBD,Raw
93,M,Open,3,Dmitro Chumakov,Дмитро Чумаков,1985-05-22,92.51,267.5,175,300,742.5,SBD,Raw
93,M,Open,4,Igor Pogorslov,Ігор Погорслов,1986-04-29,91.9,235,197.5,250,682.5,SBD,Raw
93,M,Open,5,Evgeniy Pototskiy,Євгеній Потоцький,1992-07-23,92.51,250,160,265,675,SBD,Raw
93,M,Open,6,Dmitro Sadovskiy,Дмитро Садовський,1993-11-09,92.44,240,162.5,265,667.5,SBD,Raw
93,M,Open,7,Artem Sendetskiy,Артем Сендецький,1988-10-15,88.42,240,150,275,665,SBD,Raw
93,M,Open,8,Oleksandr Grubar,Олександр Грубар,1982-09-16,90.6,237.5,172.5,252.5,662.5,SBD,Raw
93,M,Open,9,Roman Rudenko,Роман Руденко,1990-03-22,89.66,240,160,260,660,SBD,Raw
93,M,Open,10,Kirilo Kots,Кирило Коц,1995-09-21,89.51,237.5,147.5,270,655,SBD,Raw
93,M,Open,11,Andriy Denisyuk,Андрій Денисюк,1989-11-18,92.14,235,165,255,655,SBD,Raw
93,M,Open,12,Taras Mikolayovich,Тарас Миколайович,1981-07-04,92.6,240,155,260,655,SBD,Raw
93,M,Open,13,Sergiy Katerinchuk,Сергій Катеринчук,1989-02-23,92.72,232.5,147.5,275,655,SBD,Raw
93,M,Open,14,Vladislav Savchuk,Владислав Савчук,1987-06-10,89.1,240,167.5,235,642.5,SBD,Raw
93,M,Open,15,Yuriy Chernyavskiy,Юрій Чернявський,1972-03-02,91.29,227.5,162.5,250,640,SBD,Raw
93,M,Open,16,Sergiy Deynega,Сергій Дейнега,1988-05-24,92.26,217.5,155,250,622.5,SBD,Raw
93,M,Open,17,Viktor Cherkasheninov,Віктор Черкашенінов,1977-06-21,92.53,230,160,225,615,SBD,Raw
93,M,Open,18,Vadim Cherkaskiy,Вадим Черкаський,1984-02-17,92.71,210,155,245,610,SBD,Raw
93,M,Open,19,Andriy Stanko,Андрій Станько,1980-12-09,92.32,220,150,235,605,SBD,Raw
93,M,Open,20,Denis Kolisnik,Денис Колісник,1980-07-13,91.61,220,150,230,600,SBD,Raw
93,M,Open,21,Oleksandr Pivmyuk,Олександр Півмюк,1990-02-27,90.35,200,160,150,510,SBD,Raw
93,M,Open,DQ,Volodimir Tyushka,Володимир Тюшка,1983-04-20,90.29,-227.5,,,,SBD,Raw
105,M,Open,1,Maksim Skobelev,Максим Скобєлєв,1984-06-07,102.55,300,182.5,317.5,800,SBD,Raw
105,M,Open,2,Igor Makovetskiy,Ігор Маковецький,1972-04-08,101.28,305,185,295,785,SBD,Raw
105,M,Open,3,Kostyantin Ezik,Костянтин Єзик,1991-11-13,103.93,270,207.5,300,777.5,SBD,Raw
105,M,Open,4,Ivan Noga,Іван Нога,1991-10-21,104.14,275,180,305,760,SBD,Raw
105,M,Open,5,Oleksandr Dubovoy,Олександр Дубовой,1980-07-11,104.34,285,210,265,760,SBD,Raw
105,M,Open,6,Pavlo Krikunov,Павло Крикунов,1979-04-20,101.76,277.5,185,290,752.5,SBD,Raw
105,M,Open,7,Sergiy Likhodid,Сергій Лиходід,1990-09-27,102.07,267.5,182.5,300,750,SBD,Raw
105,M,Open,8,Sergiy Kovalenko,Сергій Коваленко,1994-03-05,104.97,287.5,170,290,747.5,SBD,Raw
105,M,Open,9,Artem Gonchar,Артем Гончар,1989-08-21,102.85,265,190,290,745,SBD,Raw
105,M,Open,10,Bogdan Radish,Богдан Радиш,1987-02-09,99.39,250,187.5,280,717.5,SBD,Raw
105,M,Open,11,Oleksandr Pozdnyakov,Олександр Поздняков,1980-01-18,103.4,255,182.5,280,717.5,SBD,Raw
105,M,Open,12,Vasil Balazh,Василь Балаж,1988-03-15,97.62,255,165,280,700,SBD,Raw
105,M,Open,13,Ivan Seletskiy,Іван Селецький,1994-01-18,104.03,250,185,262.5,697.5,SBD,Raw
105,M,Open,14,Mikola Gukivskiy,Микола Гуківський,1994-11-24,101.87,250,170,275,695,SBD,Raw
105,M,Open,15,Vadim Kuzmenko,Вадим Кузьменко,1985-08-19,104.03,250,187.5,252.5,690,SBD,Raw
105,M,Open,16,Roman Dubina,Роман Дубіна,1990-10-17,104.06,260,150,280,690,SBD,Raw
105,M,Open,17,Dmitro Lavrenko,Дмитро Лавренко,1988-11-22,103.94,225,170,280,675,SBD,Raw
105,M,Open,18,Yuriy Vasilev,Юрій Васильєв,1987-05-17,104.57,240,170,265,675,SBD,Raw
105,M,Open,19,Pavlo Gorchak,Павло Горчак,1992-07-12,100.98,227.5,195,250,672.5,SBD,Raw
105,M,Open,20,Vyacheslav Ryabko,Вячеслав Рябко,1982-11-26,104.71,250,160,255,665,SBD,Raw
105,M,Open,21,Ivan Smolyak,Іван Смоляк,1988-05-26,104.1,230,160,240,630,SBD,Raw
105,M,Open,22,Ruslan Nemanikhin,Руслан Неманіхін,1992-12-06,97.93,215,137.5,230,582.5,SBD,Raw
105,M,Open,23,Igor Murachov,Ігор Мурачов,1984-12-09,104.16,175,137.5,215,527.5,SBD,Raw
105,M,Open,24,Denis Gzngur,Денис Гзнгур,1996-11-02,102.98,150,100,150,400,SBD,Raw
105,M,Open,DQ,Artem Yakushenko,Артем Якушенко,1990-08-01,104.85,255,192.5,-310,,SBD,Raw
120,M,Open,1,Dmitro Pavlenko,Дмитро Павленко,1992-11-04,113.23,325,200,335,860,SBD,Raw
120,M,Open,2,Viktor Marynenko,Віктор Мариненко,1987-10-07,119.93,315,207.5,325,847.5,SBD,Raw
120,M,Open,3,Oleksiy Vyshnytskyy,Олексій Вишницький,1981-05-01,113.14,325.5,170,350.5,846,SBD,Raw
120,M,Open,4,Mikola Arsenyuk,Микола Арсенюк,1993-06-24,117.69,280,217.5,327.5,825,SBD,Raw
120,M,Open,5,Sergiy Lyubchenko,Сергій Любченко,1988-04-15,118.36,297.5,202.5,302.5,802.5,SBD,Raw
120,M,Open,6,Andriy Burdenyuk,Андрій Бурденюк,1994-03-18,111.24,257.5,170,310,737.5,SBD,Raw
120,M,Open,7,Artem Kravtsov,Артем Кравцов,1990-07-21,116.38,265,185,285,735,SBD,Raw
120,M,Open,8,Pavlo Mishchuk,Павло Міщук,1988-01-04,118.53,260,195,270,725,SBD,Raw
120,M,Open,9,Stanislav Maksimov,Станислав Максимов,1972-10-01,118.18,257.5,170,272.5,700,SBD,Raw
120+,M,Open,1,Pavlo Nakonechnyy,Павло Наконечний,1997-07-12,166.75,350,235,377.5,962.5,SBD,Raw
120+,M,Open,2,Igor Lotnik,Ігор Лотнік,1990-07-19,153.39,280,215,290,785,SBD,Raw
120+,M,Open,3,Oleksiy Litvinchuk,Олексій Литвинчук,1986-04-21,147.17,310,195,272.5,777.5,SBD,Raw
120+,M,Open,4,Stanislav Alistratov,Станіслав Алістратов,1989-01-24,123.79,285,155,305,745,SBD,Raw
47,F,Open,1,Violeta Chebotar,Віолета Чеботар,1994-12-07,47,120.5,80,125,325.5,SBD,Raw
47,F,Open,2,Iryna Baburova,Ірина Бабурова,1986-04-10,46.85,100,60,130,290,SBD,Raw
47,F,Open,3,Katerina Osipova,Катерина Осіпова,1994-11-30,45.16,92.5,62.5,112.5,267.5,SBD,Raw
47,F,Open,4,Olga Indikova,Ольга Індикова,1982-07-12,46.42,80,45,117.5,242.5,SBD,Raw
47,F,Open,5,Katerina Omelchuk,Катерина Омельчук,1991-10-03,45.81,82.5,42.5,112.5,237.5,SBD,Raw
47,F,Open,6,Anastasiya Tanich,Анастасія Танич,1988-08-26,46.87,90,47.5,95,232.5,SBD,Raw
47,F,Open,7,Olga Goncharova,Ольга Гончарова,1979-02-11,43.49,75,40,95,210,SBD,Raw
52,F,Open,1,Viktoriya Druzyaka,Вікторія Друзяка,1998-03-04,49.64,122.5,75,132.5,330,SBD,Raw
52,F,Open,2,Nataliya Ivankova,Наталія Іванькова,1974-05-31,51.25,122.5,72.5,130,325,SBD,Raw
52,F,Open,3,Garnaga Darya,Даря Гарнага,1983-07-01,51.94,107.5,70,130,307.5,SBD,Raw
52,F,Open,4,Bogdana Paleshko,Богдана Палєшко,1981-09-12,49.73,112.5,62.5,115,290,SBD,Raw
52,F,Open,5,Yuliya Chernyak,Юлія Черняк,1983-03-10,50.97,97.5,52.5,130,280,SBD,Raw
52,F,Open,6,Kristina Bulgakova,Крістіна Булгакова,1993-01-18,51.51,95,55,117.5,267.5,SBD,Raw
57,F,Open,1,Yuliya Chikalina,Юлія Чикаліна,1998-02-16,56.13,117.5,86.5,155,359,SBD,Raw
57,F,Open,2,Irina Gorna,Ірина Горна,1992-10-22,56.01,112.5,82.5,147.5,342.5,SBD,Raw
57,F,Open,3,Margarita Klinova,Маргарита Клинова,1992-06-04,56.15,132.5,75,130,337.5,SBD,Raw
57,F,Open,4,Veronika Venediktova,Вероніка Венедіктова,1985-05-08,55.74,115,80,137.5,332.5,SBD,Raw
57,F,Open,5,Yuliya Lemeshchenko,Юлія Лемещенко,1983-08-28,55.72,125,65,140,330,SBD,Raw
57,F,Open,6,Tetyana Kuleshova,Тетяна Кулєшова,1979-07-20,56.44,102.5,67.5,125,295,SBD,Raw
57,F,Open,7,Oleksandra Koretska,Олександра Корецька,1994-04-06,56.54,97.5,55,130,282.5,SBD,Raw
57,F,Open,DQ,Yana Khlanta,Яна Хланта,1987-12-10,56.03,130,60,-150,,SBD,Raw
63,F,Open,1,Katerina Plis,Катерина Пліс,1990-02-12,62.25,160,70,155,385,SBD,Raw
63,F,Open,2,Oksana Gorbenko,Оксана Горбенко,1983-07-20,61.62,125,70,170,365,SBD,Raw
63,F,Open,3,Yuliya Grigorenko,Юлія Григоренко,1996-02-03,57.52,112.5,70,135,317.5,SBD,Raw
63,F,Open,4,Tetyana Maslyanchuk,Тетяна Маслянчук,1984-04-14,60.6,127.5,60,120,307.5,SBD,Raw
63,F,Open,5,Irina Kryuk,Ірина Крюк,1982-10-16,60.43,110,55,115,280,SBD,Raw
63,F,Open,6,Ivanna Kozyar,Іванна Козяр,1985-07-04,59.35,82.5,60,120,262.5,SBD,Raw
63,F,Open,DQ,Ganna Diakovska,Ганна Діаковська,1986-05-17,62.11,110,-52.5,132.5,,SBD,Raw
72,F,Open,1,Olga Drozdova,Ольга Дроздова,1986-04-12,66.8,155,100,171,426,SBD,Raw
72,F,Open,2,Valeriya Timofieva,Валерія Тимофієва,1989-08-24,70.94,152.5,82.5,183,418,SBD,Raw
72,F,Open,3,Elizaveta Skorikh,Єлизавета Скорих,1993-11-10,67.89,127.5,65,137.5,330,SBD,Raw
72,F,Open,4,Oksana Korablova,Оксана Корабльова,1986-12-20,70.86,120,55,145,320,SBD,Raw
72,F,Open,5,Irina Kolesnikova,Ірина Колеснікова,1986-10-29,71.54,115,57.5,130,302.5,SBD,Raw
84,F,Open,1,Yuliya Marinenko,Юлія Мариненко,1995-09-01,83.28,157.5,75,178.5,411,SBD,Raw
84,F,Open,2,Alina Kiprenko,Аліна Кіпренко,1998-05-14,83.85,135,80,150,365,SBD,Raw
84,F,Open,3,Inna Yudina,Інна Юдіна,1978-06-07,83.25,130,82.5,135,347.5,SBD,Raw
84,F,Open,4,Anastasiya Pasichnik,Анастасія Пасічник,1992-10-07,74.32,92.5,47.5,102.5,242.5,SBD,Raw
84+,F,Open,1,Tetyana Litvinyuk,Тетяна Литвинюк,1986-11-17,96.59,160,105,175,440,SBD,Raw
84+,F,Open,2,Viktoriya Polishchuk,Вікторія Поліщук,1985-10-06,99.11,155,102.5,170,427.5,SBD,Raw
84+,F,Open,3,Alona Chumakova,Альона Чумакова,1982-10-16,107.52,185,80,155,420,SBD,Raw
53,M,Juniors,1,Roman Fedorchuk,Роман Федорчук,1999-09-09,49.49,60,47.5,80,187.5,SBD,Raw
59,M,Juniors,1,Rostislav Zherebtsov,Ростислав Жеребцов,1998-05-26,58.3,157.5,117.5,197.5,472.5,SBD,Raw
59,M,Juniors,2,Ruslan Leeonovich,Руслан Лееонович,1997-05-14,58.8,152.5,90,197.5,440,SBD,Raw
59,M,Juniors,3,Edgar Dolgiy,Едгар Долгий,1996-06-06,58.9,145,110,180,435,SBD,Raw
59,M,Juniors,4,Rostislav Kinishchuk,Ростислав Кініщук,1999-07-30,58.59,135,117.5,162.5,415,SBD,Raw
59,M,Juniors,5,Volodimir Penteleychuk,Володимир Пентелейчук,1997-12-01,59,125,90,145,360,SBD,Raw
59,M,Juniors,6,Ivan Bilik,Іван Білик,1996-05-03,54.33,115,90,135,340,SBD,Raw
59,M,Juniors,NS,Markiyan Korobiy,Маркіян Коробій,1998-11-24,,,,,,SBD,Raw
66,M,Juniors,1,Sergiy Moklyak,Сергій Мокляк,1999-01-10,65.93,195,137.5,215,547.5,SBD,Raw
66,M,Juniors,2,Sergiy Gashenko,Сергій Гашенко,1997-06-29,65.87,197.5,112.5,217.5,527.5,SBD,Raw
66,M,Juniors,3,Vadim Gutnik,Вадим Гутник,1999-06-11,63.83,165,125,217.5,507.5,SBD,Raw
74,M,Juniors,1,Mikiїa Sukhorutchenko,Микиїа Сухорутченко,1995-05-17,74,230,170.5,247.5,648,SBD,Raw
74,M,Juniors,2,Vadim Yarzhemskiy,Вадим Яржемський,1999-03-20,73.75,212.5,171,240,623.5,SBD,Raw
74,M,Juniors,3,Svyatoslav Tatarin,Святослав Татарин,1997-03-19,73.47,210,145,250,605,SBD,Raw
74,M,Juniors,4,Ivan Naumov,Иван Наумов,1997-12-22,73.79,202.5,137.5,258,598,SBD,Raw
74,M,Juniors,5,Stepan Savchuk,Степан Савчук,1996-04-18,72.35,205,150,240,595,SBD,Raw
74,M,Juniors,6,Nazar Ilchishin,Назар Ільчишин,1998-07-01,74,197.5,130,242.5,570,SBD,Raw
74,M,Juniors,7,Maksim Ovchar,Максим Овчар,1996-05-26,72.84,182.5,150,220,552.5,SBD,Raw
74,M,Juniors,8,Vasil Snigur,Василь Снігур,1995-05-10,71.97,180,117.5,217.5,515,SBD,Raw
74,M,Juniors,9,Andriy Andriychuk,Андрій Андрійчук,1996-04-26,73.41,205,117.5,192.5,515,SBD,Raw
74,M,Juniors,10,Andriy Mazur,Андрій Мазур,1996-04-15,72.59,175,125,202.5,502.5,SBD,Raw
74,M,Juniors,11,Oleksandr Zazhiev,Олександр Зажієв,1999-10-11,72.07,152.5,125,195,472.5,SBD,Raw
74,M,Juniors,DQ,Roman Chlek,Роман Члек,1995-05-02,71.42,-180,,,,SBD,Raw
83,M,Juniors,1,Pavlo Misnik,Павло Мисник,1995-07-17,82.5,215,177.5,270,662.5,SBD,Raw
83,M,Juniors,2,Rodion Rudenko,Родіон Руденко,1997-11-16,78.7,222.5,142.5,260,625,SBD,Raw
83,M,Juniors,3,Volodimir Sandulyak,Володимир Сандуляк,1996-03-31,82.14,210,150,235,595,SBD,Raw
83,M,Juniors,4,Artem Ponomarenko,Артем Пономаренко,1997-02-02,82.04,210,150,220,580,SBD,Raw
83,M,Juniors,5,Sergiy Melnik,Сергій Мельник,1995-04-27,82.08,185,145,235,565,SBD,Raw
83,M,Juniors,6,Dmitro Makukha,Дмитро Макуха,1997-11-30,82.2,200,120,242.5,562.5,SBD,Raw
83,M,Juniors,7,Volodimir Shevchuk,Володимир Шевчук,1998-02-14,81.75,200,165,190,555,SBD,Raw
83,M,Juniors,8,Miroslav Lukecha,Мирослав Лукеча,1998-12-25,82.61,180,122.5,192.5,495,SBD,Raw
83,M,Juniors,DQ,Evgen Ryazantsev,Євген Рязанцев,1995-10-16,81.78,200,160,-235,,SBD,Raw
83,M,Juniors,DQ,Ruslan Safronov,Руслан Сафронов,1996-11-22,82.45,200,-150,255,,SBD,Raw
93,M,Juniors,1,Sergiy Babenko,Сергій Бабенко,1997-01-09,92.38,255,155,290,700,SBD,Raw
93,M,Juniors,2,Dmitro Mayboroda,Дмитро Майборода,1997-10-14,91.34,222.5,157.5,262.5,642.5,SBD,Raw
93,M,Juniors,3,Bogdan Ivanov,Богдан Іванов,1998-11-23,92.25,232.5,130,257.5,620,SBD,Raw
93,M,Juniors,4,Sergiy Moiseenko,Сергій Моісеєнко,1999-02-09,90.79,237.5,127.5,252.5,617.5,SBD,Raw
93,M,Juniors,5,Mikola Pashkovskiy,Микола Пашковський,1996-12-20,91.77,230,140,237.5,607.5,SBD,Raw
93,M,Juniors,6,Zakhar Priyma,Захар Прийма,1999-06-30,88.89,200,170,235,605,SBD,Raw
93,M,Juniors,7,Oleksiy Bulanov,Олексій Буланов,1999-03-04,91.01,207.5,150,225,582.5,SBD,Raw
93,M,Juniors,DQ,Artur Solin,Артур Солін,1995-12-20,92.87,240,160,-255,,SBD,Raw
105,M,Juniors,1,Mikhaylo Demchenko,Михайло Демченко,1995-09-22,100.87,300,157.5,332.5,790,SBD,Raw
105,M,Juniors,2,Oleg Dudchenko,Олег Дудченко,1996-05-14,99.36,265,185,302.5,752.5,SBD,Raw
105,M,Juniors,3,Evgen Petren,Євген Петрень,1995-12-21,102.12,287.5,162.5,292.5,742.5,SBD,Raw
105,M,Juniors,4,Oleksandr Gordiychuk,Олександр Гордійчук,1996-09-04,103.67,255,167.5,262.5,685,SBD,Raw
105,M,Juniors,5,Viktor Logvin,Віктор Логвін,1998-11-14,98.72,242.5,162.5,255,660,SBD,Raw
105,M,Juniors,6,Yaroslav Sencheiko,Ярослав Сенчеико,1996-07-08,99.05,232.5,165,260,657.5,SBD,Raw
105,M,Juniors,7,Oleksandr Shapovalov,Олександр Шаповалов,1999-04-08,104.05,220,175,255,650,SBD,Raw
105,M,Juniors,DQ,Denis Gangur,Денис Гангур,1996-11-02,102.54,252.5,-152.5,,,SBD,Raw
105,M,Juniors,DQ,Andriy Derenovskiy,Андрій Дереновський,1996-03-29,104.99,-240,,,,SBD,Raw
120,M,Juniors,1,Dmitro Vovk,Дмитро Вовк,1996-01-04,119.91,305,225,275,805,SBD,Raw
120,M,Juniors,2,Igor Okhrimenko,Ігор Охріменко,1998-01-26,116.13,285,175,275,735,SBD,Raw
120,M,Juniors,3,Vyacheslav Kotoiduk,Вячеслав Котоідук,1997-04-03,115.94,265,205,255,725,SBD,Raw
120,M,Juniors,4,Ruslan Mishchenko,Руслан Міщенко,1996-07-05,115.02,230,180,257.5,667.5,SBD,Raw
120,M,Juniors,DD,Vladislae Denisyuk,Владислае Денисюк,1999-09-29,115.47,260,175,280,,SBD,Raw
120+,M,Juniors,1,Svyatoslav Trofimenko,Святослав Трофименко,1997-06-01,137.77,305,205,280,790,SBD,Raw
120+,M,Juniors,2,Artem Tsesarskiy,Артем Цесарський,1998-12-22,120.65,245,185,250,680,SBD,Raw
120+,M,Juniors,3,Vladislav Delik,Владислав Делик,1999-01-08,134.33,247.5,165,230,642.5,SBD,Raw
43,F,Juniors,1,Dariya Brazhnik,Дарія Бражник,1997-04-28,42.67,88,55.5,100,243.5,SBD,Raw
43,F,Juniors,2,Viktorivna Kapkovo,Вікторівна Капково,1996-01-05,42.91,67.5,45,77.5,190,SBD,Raw
47,F,Juniors,1,Rsnsolacha Mazepa,Рснсолача Мазепа,1995-02-02,46.27,85,45,112.5,242.5,SBD,Raw
47,F,Juniors,2,Kristinl Agesal,Крістінл Агесал,1997-06-12,46.7,75,47.5,92.5,215,SBD,Raw
52,F,Juniors,1,Tetyana Shchavinska,Тетяна Щавінська,1996-10-03,49,110,84.5,140,334.5,SBD,Raw
52,F,Juniors,2,Margaritz Turenko,Маргаритз Туренко,1995-10-20,52,120,70,130,320,SBD,Raw
52,F,Juniors,3,Viktoriya Gurak,Вікторія Гурак,1998-07-28,51.92,105,72.5,117.5,295,SBD,Raw
52,F,Juniors,4,Marina Voloshchuk,Марина Волощук,1995-06-19,51.83,100,55,85,240,SBD,Raw
57,F,Juniors,1,Yuliya Chikalina,Юлія Чикаліна,1998-02-16,56.1,115,86,152.5,353.5,SBD,Raw
57,F,Juniors,2,Yuliya Grigorenko,Юлія Григоренко,1996-02-03,56.12,120,70,142.5,332.5,SBD,Raw
57,F,Juniors,3,Olga Skaletskz,Ольга Скалецькз,1999-02-05,56.45,122.5,62.5,135,320,SBD,Raw
57,F,Juniors,4,Nataliya Borisenko,Наталія Борисенко,1996-04-22,56.94,117.5,70,125,312.5,SBD,Raw
57,F,Juniors,5,Khristina Tarasova,Христина Тарасова,1995-05-24,55,102.5,47.5,135,285,SBD,Raw
57,F,Juniors,6,Viktoriya Kordik,Вікторія Кордик,1997-08-06,56.47,80,40,107.5,227.5,SBD,Raw
63,F,Juniors,1,Sofiya Rud,Софія Рудь,1997-01-24,62.43,145.5,87.5,183,416,SBD,Raw
63,F,Juniors,2,Irina Melnik,Ірина Мельник,1995-05-10,62.3,132.5,85,140,357.5,SBD,Raw
63,F,Juniors,3,Alona Borshchevska,Альона Борщевська,1999-07-28,63,125,75,142.5,342.5,SBD,Raw
63,F,Juniors,4,Kristina Narishkina,Крістіна Наришкіна,1999-03-13,62.58,120,75,120,315,SBD,Raw
63,F,Juniors,5,Sana Tanzi,Сана Танзі,1999-06-05,58.32,97.5,57.5,120,275,SBD,Raw
72,F,Juniors,1,Dariya Iskiv,Дарія Іськів,1999-03-31,69.39,140,87.5,167.5,395,SBD,Raw
72,F,Juniors,2,Katerina Pinionzh,Катерина Пініонж,1998-09-14,71.18,115,80,140,335,SBD,Raw
72,F,Juniors,3,Yana Abolina,Яна Аболіна,1996-07-24,63.09,115,67.5,142.5,325,SBD,Raw
72,F,Juniors,4,Nadiya Pshenichnova,Надія Пшеничнова,1996-09-26,65.88,100,57.5,130,287.5,SBD,Raw
72,F,Juniors,5,Alona Kanyuka,Альона Канюка,1998-05-15,64.73,100,52.5,110,262.5,SBD,Raw
84,F,Juniors,1,Anna Ioni,Анна Іоні,1998-12-22,82.8,80,45,82.5,207.5,SBD,Raw
84,F,Juniors,DQ,Yuliya Marinenko,Юлія Мариненко,1995-09-01,83.22,-160,70,140,,SBD,Raw
84+,F,Juniors,1,Polina Kochsrova,Поліна Кочсрова,1995-07-08,87.39,150,62.5,180,392.5,SBD,Raw
84+,F,Juniors,2,Alina Kiprenko,Аліна Кіпренко,1998-05-14,84.02,147.5,80,157.5,385,SBD,Raw
53,M,Sub-Juniors,1,Mikhaylo Petrishin,Михайло Петришин,2002-01-28,49.02,105,85,147.5,337.5,SBD,Raw
53,M,Sub-Juniors,2,Oleksandr Pishenkov,Олександр Пишенков,2003-10-23,52.83,110,75,140,325,SBD,Raw
53,M,Sub-Juniors,3,Arseniy Reznichenko,Арсеній Резніченко,2004-07-14,52.9,115,65,135,315,SBD,Raw
53,M,Sub-Juniors,4,Illya Sitnik,Ілля Ситнік,2005-08-02,52.94,107.5,77.5,127.5,312.5,SBD,Raw
53,M,Sub-Juniors,5,Oleksandr Belko,Олександр Белко,2004-07-20,52.91,102.5,70,120,292.5,SBD,Raw
53,M,Sub-Juniors,6,Denis Kuznetsov,Денис Кузнецов,2003-12-03,44.01,102.5,50,115,267.5,SBD,Raw
53,M,Sub-Juniors,7,Oleksandr Mikhalskiy,Олександр Михальський,2001-05-05,52.96,92.5,67.5,102.5,262.5,SBD,Raw
53,M,Sub-Juniors,8,Dmitro Moshchenko,Дмитро Мощенко,2005-01-02,51.69,95,55,92.5,242.5,SBD,Raw
53,M,Sub-Juniors,9,Vladislav Kravchenko #2,Владислав Кравченко,2005-04-14,43.34,75,45,90,210,SBD,Raw
59,M,Sub-Juniors,1,Rostislav Babyuk,Ростислав Бабюк,2000-06-28,58.97,150,112.5,180,442.5,SBD,Raw
59,M,Sub-Juniors,2,Sebastian Marton,Себастіан Мартон,2000-07-30,57.62,137.5,120,165,422.5,SBD,Raw
59,M,Sub-Juniors,3,Oleg Chebotaev,Олег Чеботаев,2001-05-05,58.84,145,105,167.5,417.5,SBD,Raw
59,M,Sub-Juniors,4,Oleksandr Doroshenko,Олександр Дорошенко,2002-06-12,58.67,137.5,107.5,145,390,SBD,Raw
59,M,Sub-Juniors,5,Nazar Chichotka,Назар Чихотка,2001-08-21,58.04,135,85,140,360,SBD,Raw
59,M,Sub-Juniors,6,Ruslam Melikoe,Руслам Мелікое,2003-12-31,58.74,90,85,130,305,SBD,Raw
59,M,Sub-Juniors,7,Denis Skiba,Денис Скиба,2004-04-26,57.41,100,60,130,290,SBD,Raw
59,M,Sub-Juniors,NS,Bogdan Pogromskiy,Богдан Погромський,2003-09-15,,,,,,SBD,Raw
59,M,Sub-Juniors,DQ,Vladislav Bayda,Владислав байда,2003-03-21,58.22,-125,90,155,,SBD,Raw
66,M,Sub-Juniors,1,Yuriy Revuna,Юрій Ревуна,2000-02-19,65.4,195,122.5,210,527.5,SBD,Raw
66,M,Sub-Juniors,2,Dmitro Kovbasyuk,Дмитро Ковбасюк,2000-11-10,65.55,177.5,120,222.5,520,SBD,Raw
66,M,Sub-Juniors,3,Mikhaylo Kogut,Михайло Когут,2002-02-03,65.41,185,122.5,180,487.5,SBD,Raw
66,M,Sub-Juniors,4,Illya Koval,Ілля Коваль,2000-05-13,65.7,150,97.5,190,437.5,SBD,Raw
66,M,Sub-Juniors,5,Anton Slabko,Антон Слабко,2001-01-21,65.76,152.5,97.5,175,425,SBD,Raw
66,M,Sub-Juniors,6,Vladislav Lesyuk,Владислав Лесюк,2001-10-05,65.9,140,110,155,405,SBD,Raw
66,M,Sub-Juniors,DQ,Sergiy Kulyak,Сергій Куляк,2000-04-19,64.76,-150,100,182.5,,SBD,Raw
66,M,Sub-Juniors,DQ,Pavlo Klim'yuk,Павло Клим'юк,2000-06-16,65.8,150,-110,-190,,SBD,Raw
74,M,Sub-Juniors,1,Artem Gerashchenko,Артем Геращенко,2000-02-05,72.85,205,125,247.5,577.5,SBD,Raw
74,M,Sub-Juniors,2,Igor Zvonaroe,Ігор Звонарьое,2001-11-10,73.54,208.5,132.5,212.5,553.5,SBD,Raw
74,M,Sub-Juniors,3,Bogdan Shpetniy,Богдан Шпетний,2001-07-13,73.2,192.5,135,217.5,545,SBD,Raw
74,M,Sub-Juniors,4,Dmitro Selmichek,Дмитро Сельмічек,2000-10-30,71.82,190,107.5,210,507.5,SBD,Raw
74,M,Sub-Juniors,5,Kostyantin Gencha,Костянтин Генча,2001-03-06,73.14,165,110,215,490,SBD,Raw
74,M,Sub-Juniors,6,Artem-Petro Khrab,Артем-Петро Храб,2001-08-12,72.72,175,105,205,485,SBD,Raw
74,M,Sub-Juniors,7,Dmitro Kolesnik,Дмитро Колесник,2000-08-18,73.86,160,107.5,190,457.5,SBD,Raw
74,M,Sub-Juniors,8,Roman Shevchuk,Роман Шевчук,2002-06-26,72.96,140,105,180,425,SBD,Raw
74,M,Sub-Juniors,9,Maksim Gorobey,Максим Горобей,2003-04-08,71.7,135,100,150,385,SBD,Raw
74,M,Sub-Juniors,NS,Pavlo Lupashku,Павло Лупашку,2002-07-12,,,,,,SBD,Raw
74,M,Sub-Juniors,DQ,Vyacheslavivanovich Zelenskiy,ВячеславІванович Зеленський,2000-01-31,72,160,122.5,-175,,SBD,Raw
83,M,Sub-Juniors,1,Andriy Avramenko,Андрій Авраменко,2000-01-01,82.71,200,122.5,242.5,565,SBD,Raw
83,M,Sub-Juniors,2,Anton Shpota,Антон Шпота,2000-06-18,79.97,185,142.5,235,562.5,SBD,Raw
83,M,Sub-Juniors,3,Andriy Gnatyuk,Андрій Гнатюк,2000-12-11,82.99,172.5,117.5,220,510,SBD,Raw
83,M,Sub-Juniors,4,Illya Kovach,Ілля Ковач,2003-08-01,81.43,162.5,117.5,185,465,SBD,Raw
93,M,Sub-Juniors,1,Aydin Gulamov,Айдин Гуламов,2000-05-04,92.98,210,165,230,605,SBD,Raw
93,M,Sub-Juniors,2,Vladislav Fents,Владислав Фенц,2002-01-17,86.26,185,115,220,520,SBD,Raw
93,M,Sub-Juniors,3,Vadim Gavrilyuk,Вадим Гаврилюк,2000-05-04,92.82,185,130,190,505,SBD,Raw
93,M,Sub-Juniors,4,Anton Neskorodev,Антон Нескородєв,2002-03-12,88.41,160,95,220,475,SBD,Raw
93,M,Sub-Juniors,5,Nazariy Shemelyak,Назарій Шемеляк,2000-04-03,89.98,180,125,167.5,472.5,SBD,Raw
105,M,Sub-Juniors,1,Anton Biruk,Антон Бірук,2000-05-25,93.85,250,145,270,665,SBD,Raw
105,M,Sub-Juniors,2,Oleksandr Shtadler,Олександр Штадлер,2000-08-06,98.44,215,127.5,225,567.5,SBD,Raw
105,M,Sub-Juniors,3,Taras Melnichuk,Тарас Мельничук,2001-03-25,94.63,205,135,205,545,SBD,Raw
120,M,Sub-Juniors,DD,Ivan Begma,Іван Бегма,2000-05-17,110.37,250,183,250,,SBD,Raw
120,M,Sub-Juniors,DD,Egor Karamushka,Єгор Карамушка,2001-01-07,116.78,180,135,192.5,,SBD,Raw
43,F,Sub-Juniors,1,Mariya Polyanska,Марія Полянська,2003-09-18,42.88,77.5,40,115.5,233,SBD,Raw
43,F,Sub-Juniors,2,Anastasiya Tolstaya,Анастасія Толстая,2004-04-02,42.68,80,47.5,105,232.5,SBD,Raw
43,F,Sub-Juniors,3,Kristina Leonenko,Крістіна Лєонєнко,2001-04-22,42.77,70,55,97.5,222.5,SBD,Raw
43,F,Sub-Juniors,4,Elizaveta Grebinik,Єлизавета Гребіник,2001-09-01,43,65,50,95,210,SBD,Raw
43,F,Sub-Juniors,5,Sofiya Fedak,Софія Федак,2003-11-06,42.91,70,30,85,185,SBD,Raw
47,F,Sub-Juniors,1,Viktoriya Voloshchenko,Вікторія Волощенко,2000-03-04,46.97,75,42.5,100,217.5,SBD,Raw
47,F,Sub-Juniors,2,Ivanna Matushchak,Іванна Матущак,2003-06-25,44.75,70,50,95,215,SBD,Raw
47,F,Sub-Juniors,3,Anastasiya Ovchar,Анастасія Овчар,2001-09-12,45.72,70,40,105,215,SBD,Raw
47,F,Sub-Juniors,4,Valeriya Mustafina,Валерія Мустафіна,2004-01-04,46.27,72.5,37.5,85,195,SBD,Raw
47,F,Sub-Juniors,5,Irina Pisotska,Ірина Пісоцька,2004-05-18,46.87,52.5,32.5,65,150,SBD,Raw
52,F,Sub-Juniors,1,Alina Tsikul,Аліна Цікул,2001-10-04,52,132.5,52.5,120,305,SBD,Raw
52,F,Sub-Juniors,2,Maryana Dorka,Маряна Дьорка,2001-02-13,51.76,85,52.5,110,247.5,SBD,Raw
52,F,Sub-Juniors,3,Maryana Fisunenko,Маряна Фісуненко,2001-04-14,51.72,85,50,110,245,SBD,Raw
52,F,Sub-Juniors,4,Viktoriya Markiv,Вікторія Марків,2002-08-23,50.89,85,52.5,90,227.5,SBD,Raw
52,F,Sub-Juniors,5,Sofiya Bzdir,Софія Бздир,2003-07-03,51.62,75,47.5,100,222.5,SBD,Raw
52,F,Sub-Juniors,6,Valeriya Yavorska,Валерія Яворська,2003-07-16,51.73,80,47.5,82.5,210,SBD,Raw
57,F,Sub-Juniors,1,Anastasiya Antonyuk,Анастасія Антонюк,2002-06-22,56.77,100,65,135,300,SBD,Raw
57,F,Sub-Juniors,2,Mariya Bilous,Марія Білоус,2000-11-22,56.27,92.5,57.5,122.5,272.5,SBD,Raw
57,F,Sub-Juniors,3,Olena Shatalova,Олена Шаталова,2002-09-23,56.82,90,57.5,117.5,265,SBD,Raw
57,F,Sub-Juniors,4,Mariya Kozir,Марія Козир,2004-07-12,55.73,85,57.5,97.5,240,SBD,Raw
57,F,Sub-Juniors,5,Anna Loshkarova,Анна Лошкарьова,2002-03-15,53.94,85,45,105,235,SBD,Raw
57,F,Sub-Juniors,6,Polina Szlenko,Поліна Сзлєнко,2002-02-28,54.5,75,52.5,107.5,235,SBD,Raw
57,F,Sub-Juniors,7,Angelina Migul,Ангеліна Мігуль,2003-01-17,56.16,80,40,85,205,SBD,Raw
63,F,Sub-Juniors,1,Katerina Kupaeva,Катерина Купаєва,2000-05-16,62.63,125,65,125,315,SBD,Raw
63,F,Sub-Juniors,2,Anita Kolesnik,Аніта Колесник,2003-01-04,60.65,122.5,55,130,307.5,SBD,Raw
63,F,Sub-Juniors,3,Darina Kelbus,Дарина Кельбус,2001-05-05,57.9,95,52.5,105,252.5,SBD,Raw
63,F,Sub-Juniors,NS,Marina Marinina,Марина Марініна,2002-01-01,,,,,,SBD,Raw
72,F,Sub-Juniors,1,Darya Rusanenko,Даря Русаненко,2001-04-06,66.94,133,80.5,137.5,351,SBD,Raw
72,F,Sub-Juniors,2,Olga Kovalenko,Ольга Коваленко,2000-02-04,66.27,105,60,135,300,SBD,Raw
72,F,Sub-Juniors,3,Angelina Degtyar,Ангеліна Дегтяр,2001-11-01,63.9,95,50,105,250,SBD,Raw
72,F,Sub-Juniors,4,Irina Kvas,Ірина Квас,2003-12-25,63.13,80,40,115,235,SBD,Raw
72,F,Sub-Juniors,5,Amina Meleshko,Аміна Мелешко,2004-10-11,69.67,75,42.5,92.5,210,SBD,Raw
84,F,Sub-Juniors,1,Maryana Vasilik,Маряна Василик,2002-08-31,73.24,125,75,145,345,SBD,Raw
84,F,Sub-Juniors,2,Inna Pradun,Інна Прадун,2000-04-03,72.63,105,57.5,122.5,285,SBD,Raw
84,F,Sub-Juniors,3,Valeriya Kompaniets,Валерія Компанієць,2001-08-24,78.84,100,60,112.5,272.5,SBD,Raw
84,F,Sub-Juniors,4,Valeriya Marushchak,Валерія Марущак,2004-10-31,75.31,75,37.5,95,207.5,SBD,Raw
84+,F,Sub-Juniors,1,Viktoriya Kostyuk,Вікторія Костюк,2000-03-15,87.19,125,60,137.5,322.5,SBD,Raw
84+,F,Sub-Juniors,2,Orina Tovstokorenko,Орина Товстокоренко,2002-07-23,92.54,133.5,62.5,125,321,SBD,Raw
59,M,Masters 1,1,Oleksandr Solomko,Олександр Соломко,1974-02-23,57.39,130,75,160,365,SBD,Raw
66,M,Masters 1,1,Pavlo Korneev,Павло Корнеєв,1976-01-03,65.54,132.5,107.5,165,405,SBD,Raw
66,M,Masters 1,2,Igor Ovchar,Ігор Овчар,1969-12-08,62.45,90,97.5,130,317.5,SBD,Raw
74,M,Masters 1,1,Andriy Ivzhenko,Андрій Івженко,1977-03-28,73.78,205,130,225,560,SBD,Raw
74,M,Masters 1,2,Dmitro Korotya,Дмитро Коротя,1975-11-21,73.94,160,140.5,205,505.5,SBD,Raw
74,M,Masters 1,3,Sergiy Sereda,Сергій Середа,1978-07-04,72.5,152.5,137.5,200,490,SBD,Raw
83,M,Masters 1,1,Leonid Plotnitskiy,Леонід Плотницький,1973-09-10,82.65,242.5,177.5,265.5,685.5,SBD,Raw
93,M,Masters 1,1,Oleksandr Gorbenko,Олександр Горбенко,1977-06-22,91.91,205,150,245,600,SBD,Raw
93,M,Masters 1,2,Viktor Cherkzsheninov,Віктор Черкзшенінов,1977-06-21,92.26,170,120,140,430,SBD,Raw
105,M,Masters 1,1,Vitaliy Podust,Віталій Подуст,1976-01-22,103.9,250,160,240,650,SBD,Raw
120,M,Masters 1,1,Mikhaylo Gal,Михайло Гал,1971-03-19,115.62,277,135,245,657,SBD,Raw
120,M,Masters 1,2,Yuriy Miroshnichenks,Юрій Мирошниченкс,1971-12-02,117.81,240,187.5,225,652.5,SBD,Raw
83,M,Masters 2,1,Vitaliy Matyash,Віталій Матяш,1960-09-11,78.75,130,102.5,170,402.5,SBD,Raw
93,M,Masters 2,1,Eduard Lisenko,Едуард Лисенко,1962-01-27,93,185,102.5,222.5,510,SBD,Raw
93,M,Masters 2,2,Oleksandr Tverdovskiy,Олександр Твердовський,1963-05-13,88.28,165,135,207.5,507.5,SBD,Raw
93,M,Masters 2,3,Vyacheslav Pavlenko,Вячеслав Павленко,1968-03-01,89.7,162.5,115,190,467.5,SBD,Raw
93,M,Masters 2,4,Igor Nikitchuk,Ігор Нікітчук,1962-01-11,84.91,115,95,130,340,SBD,Raw
105,M,Masters 2,1,Anatoliy Baranov,Анатолій Баранов,1960-07-10,99.69,195,140,205,540,SBD,Raw
105,M,Masters 2,2,Mikhaylo Kemin,Михайло Кемінь,1960-06-17,98.21,170,130,180,480,SBD,Raw
105,M,Masters 2,3,Viktor Pogrebinskiy,Віктор Погребінський,1968-04-28,93.1,155,122.5,155,432.5,SBD,Raw
120+,M,Masters 2,1,Yuriy Khmil,Юрій Хміль,1968-02-25,128.3,200,170,230,600,SBD,Raw
93,M,Masters 3,1,Dmitro Bogatel,Дмитро Богатель,1958-10-23,89.49,115,107.5,162.5,385,SBD,Raw
120,M,Masters 3,1,Oleksandr Ponomaizov,Олександр Пономаізьов,1954-08-07,111.34,197.5,150.5,190,538,SBD,Raw
59,M,Student,1,Volodimir Penteleychuk,Володимир Пентелейчук,1997-12-01,58.6,115,90,132.5,337.5,SBD,Raw
66,M,Student,1,Yuriy Revuka,Юрій Ревука,2000-02-19,65.71,185,120,160,465,SBD,Raw
66,M,Student,2,Bogdan Fitel,Богдан Фітель,2000-10-01,65.35,140,117.5,180,437.5,SBD,Raw
74,M,Student,1,Svyatoslav Tatarin,Святослав Татарин,1997-03-19,73.98,215,145,235,595,SBD,Raw
74,M,Student,2,Andriy Manastirskiy,Андрій Манастирський,1998-05-17,73.06,195,147.5,230,572.5,SBD,Raw
74,M,Student,3,Oleksiy Nertik,Олексій Нертик,1998-07-15,73.44,190,137.5,217.5,545,SBD,Raw
74,M,Student,DQ,Maksim Ovchar,Максим Овчар,1996-05-26,73.02,-170,,,,SBD,Raw
83,M,Student,1,Andriy Nos,Андрій Нос,1993-06-04,82.75,230,160,235,625,SBD,Raw
83,M,Student,2,Ruslan Safronov,Руслан Сафронов,1996-11-22,82.55,202.5,157.5,245,605,SBD,Raw
83,M,Student,3,Vladislav Ustimenko,Владислав Устименко,1998-03-26,75,160,115,225,500,SBD,Raw
93,M,Student,1,Oleksandr Posenko,Олександр Посенко,2001-10-15,90.4,190,137.5,207.5,535,SBD,Raw
93,M,Student,2,Maksim Zhabko,Максим Жабко,1999-04-14,84.93,170,120,200,490,SBD,Raw
105,M,Student,1,Denis Gangur,Денис Гангур,1996-11-02,102.98,150,100,150,400,SBD,Raw
47,F,Student,1,Dariya Brazhnik,Дарія Бражник,1997-04-28,43.2,80,47.5,97.5,225,SBD,Raw
47,F,Student,2,Anastasiya Ovchar,Анастасія Овчар,2001-09-12,45.7,70,37.5,100,207.5,SBD,Raw
47,F,Student,3,Anna Fakas,Анна Факас,1996-02-18,46.28,65,35,72.5,172.5,SBD,Raw
52,F,Student,1,Viktoriya Gurak,Вікторія Гурак,1998-07-28,51.7,105,67.5,120,292.5,SBD,Raw
52,F,Student,2,Kristina Bulgakova,Крістіна Булгакова,1993-01-18,51.51,95,55,117.5,267.5,SBD,Raw
57,F,Student,1,Yuliya Chikalina,Юлія Чикаліна,1998-02-16,56.13,117.5,86.5,155,359,SBD,Raw
63,F,Student,1,Yuliya Grigorenko,Юлія Григоренко,1996-02-03,57.52,112.5,70,135,317.5,SBD,Raw
63,F,Student,2,Kristina Narishkina,Крістіна Наришкіна,1999-03-13,62.73,110,70,120,300,SBD,Raw
63,F,Student,3,Anastasiya Rudika,Анастасія Рудика,2001-01-04,62.04,70,50,95,215,SBD,Raw
